cached_mips_test1.vcd
$date
	Wed Dec  3 00:54:08 2025
$end
$version
	Icarus Verilog
$end
$timescale
	1s
$end
$scope module cached_mips_test $end
$var reg 1 ! clk $end
$var reg 1 " reset $end
$var integer 32 # i [31:0] $end
$scope module processor $end
$var wire 1 $ PcSrc $end
$var wire 1 % branch_taken $end
$var wire 1 ! clk $end
$var wire 1 & ex_isShift $end
$var wire 1 ' exmem_flush $end
$var wire 1 ( exmem_write $end
$var wire 1 ) flush_req $end
$var wire 1 * idex_write $end
$var wire 1 + ifid_write $end
$var wire 1 , memwb_write $end
$var wire 1 - pc_write $end
$var wire 1 " reset $end
$var wire 5 . wb_write_regaddr [4:0] $end
$var wire 32 / wb_write_memdata [31:0] $end
$var wire 32 0 wb_read_memdata [31:0] $end
$var wire 32 1 wb_alu_result [31:0] $end
$var wire 1 2 wb_RegWrite $end
$var wire 1 3 wb_MemtoReg $end
$var wire 32 4 pc_plus_4 [31:0] $end
$var wire 32 5 pc_out [31:0] $end
$var wire 32 6 pc_in [31:0] $end
$var wire 5 7 mem_write_regaddr [4:0] $end
$var wire 32 8 mem_write_memdata [31:0] $end
$var wire 5 9 mem_rt [4:0] $end
$var wire 32 : mem_read_memdata [31:0] $end
$var wire 32 ; mem_branch_target [31:0] $end
$var wire 32 < mem_alu_result [31:0] $end
$var wire 1 = mem_RegWrite $end
$var wire 1 > mem_MemtoReg $end
$var wire 1 ? mem_MemWrite $end
$var wire 1 @ mem_MemRead $end
$var wire 1 A mem_Branch $end
$var wire 1 B mem_AluZero $end
$var wire 1 C ifid_flush $end
$var wire 32 D if_instr [31:0] $end
$var wire 1 E idex_flush $end
$var wire 5 F id_shamt [4:0] $end
$var wire 32 G id_sext_imm [31:0] $end
$var wire 5 H id_rt [4:0] $end
$var wire 5 I id_rs [4:0] $end
$var wire 32 J id_read_regdata2 [31:0] $end
$var wire 32 K id_read_regdata1 [31:0] $end
$var wire 5 L id_rd [4:0] $end
$var wire 32 M id_pc_plus_4 [31:0] $end
$var wire 6 N id_opcode [5:0] $end
$var wire 32 O id_instr [31:0] $end
$var wire 6 P id_funct [5:0] $end
$var wire 1 Q id_RegWrite $end
$var wire 1 R id_RegDst $end
$var wire 1 S id_MemtoReg $end
$var wire 1 T id_MemWrite $end
$var wire 1 U id_MemRead $end
$var wire 1 V id_Jump $end
$var wire 1 W id_Jr $end
$var wire 1 X id_Jal $end
$var wire 1 Y id_Branch $end
$var wire 1 Z id_AluSrc $end
$var wire 2 [ id_AluOp [1:0] $end
$var wire 1 \ forwardMem $end
$var wire 2 ] forwardB [1:0] $end
$var wire 2 ^ forwardA [1:0] $end
$var wire 5 _ ex_write_regaddr [4:0] $end
$var wire 5 ` ex_shamt [4:0] $end
$var wire 32 a ex_sext_imm [31:0] $end
$var wire 5 b ex_rt [4:0] $end
$var wire 5 c ex_rs [4:0] $end
$var wire 32 d ex_read_regdata2 [31:0] $end
$var wire 32 e ex_read_regdata1 [31:0] $end
$var wire 5 f ex_rd [4:0] $end
$var wire 32 g ex_pc_plus_4 [31:0] $end
$var wire 6 h ex_opcode [5:0] $end
$var wire 6 i ex_funct [5:0] $end
$var wire 32 j ex_branch_target [31:0] $end
$var wire 32 k ex_alu_result [31:0] $end
$var wire 32 l ex_SrcB [31:0] $end
$var wire 32 m ex_SrcA [31:0] $end
$var wire 1 n ex_RegWrite $end
$var wire 1 o ex_RegDst $end
$var wire 1 p ex_MemtoReg $end
$var wire 1 q ex_MemWrite $end
$var wire 1 r ex_MemRead $end
$var wire 1 s ex_Branch $end
$var wire 1 t ex_AluZero $end
$var wire 1 u ex_AluSrc $end
$var wire 2 v ex_AluOp [1:0] $end
$var wire 4 w ex_ALUControl [3:0] $end
$var wire 32 x dm_write_memdata [31:0] $end
$var wire 1 y cache_stall $end
$var wire 32 z cache_misses [31:0] $end
$var wire 1 { cache_mem_we $end
$var wire 32 | cache_mem_wd [31:0] $end
$var wire 1 } cache_mem_req $end
$var wire 1 ~ cache_mem_ready $end
$var wire 32 !" cache_mem_rd [31:0] $end
$var wire 32 "" cache_mem_addr [31:0] $end
$var wire 32 #" cache_hits [31:0] $end
$var wire 32 $" cache_accesses [31:0] $end
$scope module ALU $end
$var wire 32 %" a [31:0] $end
$var wire 32 &" b [31:0] $end
$var wire 1 t Zero $end
$var wire 4 '" ALUControl [3:0] $end
$var parameter 4 (" ADD $end
$var parameter 4 )" AND $end
$var parameter 4 *" MUL $end
$var parameter 4 +" NOR $end
$var parameter 4 ," OR $end
$var parameter 4 -" SLL $end
$var parameter 4 ." SLT $end
$var parameter 4 /" SRL $end
$var parameter 4 0" SUB $end
$var reg 32 1" result [31:0] $end
$upscope $end
$scope module alu_ctrl $end
$var wire 6 2" opcode [5:0] $end
$var wire 6 3" funct [5:0] $end
$var wire 2 4" alu_op [1:0] $end
$var parameter 4 5" ALU_ADD $end
$var parameter 4 6" ALU_AND $end
$var parameter 4 7" ALU_MUL $end
$var parameter 4 8" ALU_NOR $end
$var parameter 4 9" ALU_OR $end
$var parameter 4 :" ALU_SLL $end
$var parameter 4 ;" ALU_SLT $end
$var parameter 4 <" ALU_SRL $end
$var parameter 4 =" ALU_SUB $end
$var parameter 6 >" FUNCT_ADD $end
$var parameter 6 ?" FUNCT_AND $end
$var parameter 6 @" FUNCT_JR $end
$var parameter 6 A" FUNCT_MUL $end
$var parameter 6 B" FUNCT_NOR $end
$var parameter 6 C" FUNCT_OR $end
$var parameter 6 D" FUNCT_SLL $end
$var parameter 6 E" FUNCT_SLT $end
$var parameter 6 F" FUNCT_SRL $end
$var parameter 6 G" FUNCT_SUB $end
$var parameter 6 H" OP_ANDI $end
$var parameter 6 I" OP_ORI $end
$var reg 4 J" ALUControl [3:0] $end
$upscope $end
$scope module cu $end
$var wire 6 K" funct [5:0] $end
$var wire 6 L" opcode [5:0] $end
$var parameter 6 M" OP_ADDI $end
$var parameter 6 N" OP_ANDI $end
$var parameter 6 O" OP_BEQ $end
$var parameter 6 P" OP_BNE $end
$var parameter 6 Q" OP_JAL $end
$var parameter 6 R" OP_JUMP $end
$var parameter 6 S" OP_LW $end
$var parameter 6 T" OP_ORI $end
$var parameter 6 U" OP_RTYPE $end
$var parameter 6 V" OP_SLT $end
$var parameter 6 W" OP_SW $end
$var reg 1 Z ALUSrc $end
$var reg 1 Y Branch $end
$var reg 1 X Jal $end
$var reg 1 W Jr $end
$var reg 1 V Jump $end
$var reg 1 U MemRead $end
$var reg 1 T MemWrite $end
$var reg 1 S MemtoReg $end
$var reg 1 R RegDst $end
$var reg 1 Q RegWrite $end
$var reg 2 X" alu_op [1:0] $end
$upscope $end
$scope module dcache $end
$var wire 1 ! clk $end
$var wire 1 Y" hit $end
$var wire 1 Z" hit0 $end
$var wire 1 [" hit1 $end
$var wire 1 y mem_stall $end
$var wire 1 \" needs_writeback $end
$var wire 1 " reset $end
$var wire 1 ]" victim_way_comb $end
$var wire 32 ^" wd [31:0] $end
$var wire 3 _" word_idx [2:0] $end
$var wire 20 `" tag_in [19:0] $end
$var wire 3 a" saved_word [2:0] $end
$var wire 20 b" saved_tag [19:0] $end
$var wire 7 c" saved_index [6:0] $end
$var wire 32 d" read_data [31:0] $end
$var wire 32 e" rd [31:0] $end
$var wire 1 f" op_victim $end
$var wire 7 g" op_idx [6:0] $end
$var wire 1 ~ mem_ready $end
$var wire 32 h" mem_rd [31:0] $end
$var wire 7 i" index [6:0] $end
$var wire 32 j" addr [31:0] $end
$var wire 1 ? MemWrite $end
$var wire 1 @ MemRead $end
$var parameter 2 k" IDLE $end
$var parameter 2 l" REFILL $end
$var parameter 2 m" WRITEBACK $end
$var reg 1 n" after_miss $end
$var reg 32 o" hit_count [31:0] $end
$var reg 32 p" mem_addr [31:0] $end
$var reg 1 } mem_req $end
$var reg 32 q" mem_wd [31:0] $end
$var reg 1 { mem_we $end
$var reg 32 r" miss_count [31:0] $end
$var reg 32 s" saved_addr [31:0] $end
$var reg 32 t" saved_data [31:0] $end
$var reg 1 u" saved_is_write $end
$var reg 1 v" saved_victim_way $end
$var reg 2 w" state [1:0] $end
$var reg 32 x" total_accesses [31:0] $end
$var reg 3 y" word_counter [2:0] $end
$var integer 32 z" k [31:0] $end
$upscope $end
$scope module dmem $end
$var wire 32 {" addr [31:0] $end
$var wire 1 ! clk $end
$var wire 1 } req $end
$var wire 32 |" wd [31:0] $end
$var wire 1 { we $end
$var wire 32 }" rd [31:0] $end
$var reg 1 ~ mem_ready $end
$var integer 32 ~" i [31:0] $end
$upscope $end
$scope module ex_mem $end
$var wire 1 ! clk $end
$var wire 1 t ex_AluZero $end
$var wire 32 !# ex_alu_result [31:0] $end
$var wire 32 "# ex_branch_target [31:0] $end
$var wire 5 ## ex_write_regaddr [4:0] $end
$var wire 1 ' flush $end
$var wire 1 " reset $end
$var wire 1 $# stall $end
$var wire 1 %# write_enable $end
$var wire 32 &# ex_write_memdata [31:0] $end
$var wire 5 '# ex_rt [4:0] $end
$var wire 1 n ex_RegWrite $end
$var wire 1 p ex_MemtoReg $end
$var wire 1 q ex_MemWrite $end
$var wire 1 r ex_MemRead $end
$var wire 1 s ex_Branch $end
$var reg 1 B mem_AluZero $end
$var reg 1 A mem_Branch $end
$var reg 1 @ mem_MemRead $end
$var reg 1 ? mem_MemWrite $end
$var reg 1 > mem_MemtoReg $end
$var reg 1 = mem_RegWrite $end
$var reg 32 (# mem_alu_result [31:0] $end
$var reg 32 )# mem_branch_target [31:0] $end
$var reg 5 *# mem_rt [4:0] $end
$var reg 32 +# mem_write_memdata [31:0] $end
$var reg 5 ,# mem_write_regaddr [4:0] $end
$upscope $end
$scope module fwd $end
$var wire 1 ? exmem_MemWrite $end
$var wire 1 = exmem_RegWrite $end
$var wire 5 -# exmem_rt [4:0] $end
$var wire 5 .# exmem_write_regaddr [4:0] $end
$var wire 5 /# memwb_write_regaddr [4:0] $end
$var wire 1 2 memwb_RegWrite $end
$var wire 5 0# idex_rt [4:0] $end
$var wire 5 1# idex_rs [4:0] $end
$var reg 2 2# forwardA [1:0] $end
$var reg 2 3# forwardB [1:0] $end
$var reg 1 \ forwardMem $end
$upscope $end
$scope module hu $end
$var wire 1 4# ex_hazard $end
$var wire 1 = exmem_RegWrite $end
$var wire 5 5# exmem_write_regaddr [4:0] $end
$var wire 1 ) flush_req $end
$var wire 5 6# idex_write_regaddr [4:0] $end
$var wire 5 7# ifid_rs [4:0] $end
$var wire 5 8# ifid_rt [4:0] $end
$var wire 1 9# mem_hazard $end
$var wire 1 :# wb_hazard $end
$var wire 5 ;# memwb_write_regaddr [4:0] $end
$var wire 1 2 memwb_RegWrite $end
$var wire 1 n idex_RegWrite $end
$var wire 1 r idex_MemRead $end
$var reg 1 E idex_flush $end
$var reg 1 C ifid_flush $end
$var reg 1 <# ifid_write $end
$var reg 1 =# pc_write $end
$upscope $end
$scope module id_ex $end
$var wire 1 ! clk $end
$var wire 1 E flush $end
$var wire 2 ># id_AluOp [1:0] $end
$var wire 1 Z id_AluSrc $end
$var wire 1 Y id_Branch $end
$var wire 1 U id_MemRead $end
$var wire 1 T id_MemWrite $end
$var wire 1 S id_MemtoReg $end
$var wire 1 R id_RegDst $end
$var wire 1 Q id_RegWrite $end
$var wire 6 ?# id_funct [5:0] $end
$var wire 6 @# id_opcode [5:0] $end
$var wire 5 A# id_rd [4:0] $end
$var wire 5 B# id_rs [4:0] $end
$var wire 5 C# id_rt [4:0] $end
$var wire 32 D# id_sext_imm [31:0] $end
$var wire 5 E# id_shamt [4:0] $end
$var wire 1 " reset $end
$var wire 1 F# stall $end
$var wire 32 G# id_read_regdata2 [31:0] $end
$var wire 32 H# id_read_regdata1 [31:0] $end
$var wire 32 I# id_pc_plus_4 [31:0] $end
$var reg 2 J# ex_AluOp [1:0] $end
$var reg 1 u ex_AluSrc $end
$var reg 1 s ex_Branch $end
$var reg 1 r ex_MemRead $end
$var reg 1 q ex_MemWrite $end
$var reg 1 p ex_MemtoReg $end
$var reg 1 o ex_RegDst $end
$var reg 1 n ex_RegWrite $end
$var reg 6 K# ex_funct [5:0] $end
$var reg 6 L# ex_opcode [5:0] $end
$var reg 32 M# ex_pc_plus_4 [31:0] $end
$var reg 5 N# ex_rd [4:0] $end
$var reg 32 O# ex_read_regdata1 [31:0] $end
$var reg 32 P# ex_read_regdata2 [31:0] $end
$var reg 5 Q# ex_rs [4:0] $end
$var reg 5 R# ex_rt [4:0] $end
$var reg 32 S# ex_sext_imm [31:0] $end
$var reg 5 T# ex_shamt [4:0] $end
$upscope $end
$scope module if_id $end
$var wire 1 ! clk $end
$var wire 1 C flush $end
$var wire 32 U# if_pc_plus_4 [31:0] $end
$var wire 1 " reset $end
$var wire 1 V# stall $end
$var wire 32 W# if_instr [31:0] $end
$var reg 32 X# id_instr [31:0] $end
$var reg 32 Y# id_pc_plus_4 [31:0] $end
$upscope $end
$scope module imem $end
$var wire 32 Z# instr [31:0] $end
$var wire 32 [# addr [31:0] $end
$var integer 32 \# i [31:0] $end
$upscope $end
$scope module mem_wb $end
$var wire 1 ! clk $end
$var wire 1 > mem_MemtoReg $end
$var wire 1 = mem_RegWrite $end
$var wire 32 ]# mem_alu_result [31:0] $end
$var wire 32 ^# mem_read_memdata [31:0] $end
$var wire 5 _# mem_write_regaddr [4:0] $end
$var wire 1 " reset $end
$var wire 1 `# stall $end
$var wire 1 a# write_enable $end
$var reg 1 3 wb_MemtoReg $end
$var reg 1 2 wb_RegWrite $end
$var reg 32 b# wb_alu_result [31:0] $end
$var reg 32 c# wb_read_memdata [31:0] $end
$var reg 5 d# wb_write_regaddr [4:0] $end
$upscope $end
$scope module pc_reg $end
$var wire 1 ! clk $end
$var wire 32 e# pc_in [31:0] $end
$var wire 1 " reset $end
$var wire 1 - write_enable $end
$var reg 32 f# pc_out [31:0] $end
$upscope $end
$scope module rf $end
$var wire 1 ! clk $end
$var wire 5 g# ra1 [4:0] $end
$var wire 5 h# ra2 [4:0] $end
$var wire 5 i# wa [4:0] $end
$var wire 32 j# wd [31:0] $end
$var wire 1 2 we $end
$var wire 32 k# rd2 [31:0] $end
$var wire 32 l# rd1 [31:0] $end
$var integer 32 m# i [31:0] $end
$upscope $end
$upscope $end
$upscope $end
$enddefinitions $end
$comment Show the parameter values. $end
$dumpall
b1 m"
b10 l"
b0 k"
b101011 W"
b1010 V"
b0 U"
b1101 T"
b100011 S"
b10 R"
b11 Q"
b101 P"
b100 O"
b1100 N"
b1000 M"
b1101 I"
b1100 H"
b100010 G"
b10 F"
b101010 E"
b0 D"
b100101 C"
b100111 B"
b11000 A"
b1000 @"
b100100 ?"
b100000 >"
b100 ="
b111 <"
b1000 ;"
b110 :"
b1 9"
b10 8"
b101 7"
b0 6"
b11 5"
b100 0"
b111 /"
b1000 ."
b110 -"
b1 ,"
b10 +"
b101 *"
b0 )"
b11 ("
$end
#0
$dumpvars
b100000 m#
bx l#
bx k#
bx j#
bx i#
bx h#
bx g#
bx f#
bx e#
bx d#
bx c#
bx b#
za#
x`#
bx _#
bx ^#
bx ]#
b10000000 \#
bx [#
bx Z#
bx Y#
bx X#
bx W#
xV#
bx U#
bx T#
bx S#
bx R#
bx Q#
bx P#
bx O#
bx N#
bx M#
bx L#
bx K#
bx J#
bx I#
bx H#
bx G#
xF#
bx E#
bx D#
bx C#
bx B#
bx A#
bx @#
bx ?#
bx >#
x=#
x<#
bx ;#
x:#
x9#
bx 8#
bx 7#
bx 6#
bx 5#
x4#
bx 3#
bx 2#
bx 1#
bx 0#
bx /#
bx .#
bx -#
bx ,#
bx +#
bx *#
bx )#
bx (#
bx '#
bx &#
z%#
x$#
bx ##
bx "#
bx !#
b10000000 ~"
b0 }"
b0 |"
b0 {"
b10000000 z"
b0 y"
b0 x"
b0 w"
xv"
xu"
bx t"
bx s"
b0 r"
b0 q"
b0 p"
b0 o"
0n"
bx j"
bx i"
b0 h"
bx g"
xf"
bx e"
bx d"
bx c"
bx b"
bx a"
bx `"
bx _"
bx ^"
x]"
x\"
x["
xZ"
xY"
bx X"
bx L"
bx K"
bx J"
bx 4"
bx 3"
bx 2"
bx 1"
bx '"
bx &"
bx %"
b0 $"
b0 #"
b0 ""
b0 !"
x~
0}
b0 |
0{
b0 z
xy
bx x
bx w
bx v
xu
xt
xs
xr
xq
xp
xo
xn
bx m
bx l
bx k
bx j
bx i
bx h
bx g
bx f
bx e
bx d
bx c
bx b
bx a
bx `
bx _
bx ^
bx ]
x\
bx [
xZ
xY
xX
xW
xV
xU
xT
xS
xR
xQ
bx P
bx O
bx N
bx M
bx L
bx K
bx J
bx I
bx H
bx G
bx F
xE
bx D
xC
xB
xA
x@
x?
x>
x=
bx <
bx ;
bx :
bx 9
bx 8
bx 7
bx 6
bx 5
bx 4
x3
x2
bx 1
bx 0
bx /
bx .
x-
x,
x+
x*
x)
x(
x'
x&
x%
x$
bx #
1"
0!
$end
#5
0`#
0$#
0F#
0V#
0\"
1,
1(
1*
1+
1-
1t
b0 k
b0 1"
b0 !#
04#
0Y"
1f"
0y
b0 l
b0 &"
0W
0X
0Y
0V
1Q
1R
0Z
b10 [
b10 X"
b10 >#
0T
0U
0S
1&
b0 m
b0 %"
0Z"
0["
1]"
b0 g"
b0 :
b0 e"
b0 ^#
09#
0:#
b0 K
b0 H#
b0 l#
b0 J
b0 G#
b0 k#
b0 D
b0 W#
b0 Z#
b0 G
b0 D#
b0 P
b0 K"
b0 ?#
b0 F
b0 E#
b0 L
b0 A#
b0 H
b0 8#
b0 C#
b0 h#
b0 I
b0 7#
b0 B#
b0 g#
b0 N
b0 L"
b0 @#
b0 j
b0 "#
b11 w
b11 '"
b11 J"
0C
0E
1<#
1=#
b0 _
b0 ##
b0 6#
b100 6
b100 e#
b0 x
b0 ^"
b0 _"
b0 i"
b0 `"
0$
0'
0)
0%
0\
b0 ]
b0 3#
b0 ^
b0 2#
b0 /
b0 j#
b100 4
b100 U#
b0 5
b0 [#
b0 f#
b0 O
b0 X#
b0 M
b0 I#
b0 Y#
b0 `
b0 T#
b0 f
b0 N#
b0 b
b0 '#
b0 0#
b0 R#
b0 c
b0 1#
b0 Q#
b0 i
b0 3"
b0 K#
b0 h
b0 2"
b0 L#
b0 a
b0 S#
b0 d
b0 &#
b0 P#
b0 e
b0 O#
b0 g
b0 M#
b0 v
b0 4"
b0 J#
0s
0q
0r
0n
0p
0u
0o
b0 9
b0 *#
b0 -#
b0 ;
b0 )#
b0 7
b0 ,#
b0 .#
b0 5#
b0 _#
b0 8
b0 +#
b0 <
b0 j"
b0 (#
b0 ]#
0B
0A
0?
0@
0=
0>
0~
b0 .
b0 /#
b0 ;#
b0 d#
b0 i#
b0 0
b0 c#
b0 1
b0 b#
02
03
b10000000 z"
1!
#10
0!
b100000000010000000000000000000 D
b100000000010000000000000000000 W#
b100000000010000000000000000000 Z#
0"
#15
1Z
1Q
0R
b0 [
b0 X"
b0 >#
b110 w
b110 '"
b110 J"
b1000 H
b1000 8#
b1000 C#
b1000 h#
b1000 N
b1000 L"
b1000 @#
b100000000010010000000001100100 D
b100000000010010000000001100100 W#
b100000000010010000000001100100 Z#
b1000 6
b1000 e#
1B
b10 v
b10 4"
b10 J#
1n
1o
b100000000010000000000000000000 O
b100000000010000000000000000000 X#
b100 M
b100 I#
b100 Y#
b1000 4
b1000 U#
b100 5
b100 [#
b100 f#
1!
#20
0!
#25
1Q
1Z
b10001101000010100000000000000000 D
b10001101000010100000000000000000 W#
b10001101000010100000000000000000 Z#
b1100 6
b1100 e#
b1100100 G
b1100100 D#
b100100 P
b100100 K"
b100100 ?#
b1 F
b1 E#
b1001 H
b1001 8#
b1001 C#
b1001 h#
0&
b11 w
b11 '"
b11 J"
b1000 _
b1000 ##
b1000 6#
b1100 4
b1100 U#
b1000 5
b1000 [#
b1000 f#
b100000000010010000000001100100 O
b100000000010010000000001100100 X#
b1000 M
b1000 I#
b1000 Y#
b1000 b
b1000 '#
b1000 0#
b1000 R#
b1000 h
b1000 2"
b1000 L#
b100 j
b100 "#
b100 g
b100 M#
b0 v
b0 4"
b0 J#
1u
0o
1=
1!
#30
0!
#35
0t
b1100100 k
b1100100 1"
b1100100 !#
b1100100 l
b1100100 &"
19#
1S
1U
1Q
1Z
b1001 _
b1001 ##
b1001 6#
b0 G
b0 D#
b0 P
b0 K"
b0 ?#
b0 F
b0 E#
b1010 H
b1010 8#
b1010 C#
b1010 h#
b1000 I
b1000 7#
b1000 B#
b1000 g#
b100011 N
b100011 L"
b100011 @#
b10001101000010110010000000000100 D
b10001101000010110010000000000100 W#
b10001101000010110010000000000100 Z#
b10000 6
b10000 e#
12
b1000 9
b1000 *#
b1000 -#
b100 ;
b100 )#
b1000 7
b1000 ,#
b1000 .#
b1000 5#
b1000 _#
b1 `
b1 T#
b1001 b
b1001 '#
b1001 0#
b1001 R#
b100100 i
b100100 3"
b100100 K#
b1100100 a
b1100100 S#
b110011000 j
b110011000 "#
b1000 g
b1000 M#
b10001101000010100000000000000000 O
b10001101000010100000000000000000 X#
b1100 M
b1100 I#
b1100 Y#
b10000 4
b10000 U#
b1100 5
b1100 [#
b1100 f#
1!
#40
0!
#45
1t
b0 k
b0 1"
b0 !#
b0 l
b0 &"
1Q
1Z
1U
1S
09#
b11 g"
1:#
b100001000010000000000000000100 D
b100001000010000000000000000100 W#
b100001000010000000000000000100 Z#
b10100 6
b10100 e#
b10000000000100 G
b10000000000100 D#
b100 P
b100 K"
b100 ?#
b100 L
b100 A#
b1011 H
b1011 8#
b1011 C#
b1011 h#
b1010 _
b1010 ##
b1010 6#
b1 _"
b11 i"
b1 ^
b1 2#
b10100 4
b10100 U#
b10000 5
b10000 [#
b10000 f#
b10001101000010110010000000000100 O
b10001101000010110010000000000100 X#
b10000 M
b10000 I#
b10000 Y#
b0 `
b0 T#
b1010 b
b1010 '#
b1010 0#
b1010 R#
b1000 c
b1000 1#
b1000 Q#
b0 i
b0 3"
b0 K#
b100011 h
b100011 2"
b100011 L#
b0 a
b0 S#
b1100 j
b1100 "#
b1100 g
b1100 M#
1r
1p
b1001 9
b1001 *#
b1001 -#
b110011000 ;
b110011000 )#
b1001 7
b1001 ,#
b1001 .#
b1001 5#
b1001 _#
b1100100 <
b1100100 j"
b1100100 (#
b1100100 ]#
0B
b1000 .
b1000 /#
b1000 ;#
b1000 d#
b1000 i#
1!
#50
0!
#55
1`#
1$#
1F#
xV#
0,
0(
0*
x+
x-
0t
b10000000000100 k
b10000000000100 1"
b10000000000100 !#
1y
b10000000000100 l
b10000000000100 &"
0:#
b0 K
b0 H#
b0 l#
b0 g"
1Q
1Z
0U
0S
b1100100 /
b1100100 j#
b0 _"
b0 i"
b1011 _
b1011 ##
b1011 6#
b0 ^
b0 2#
b100 G
b100 D#
b0 L
b0 A#
b1000 H
b1000 8#
b1000 C#
b1000 h#
b1000 N
b1000 L"
b1000 @#
b100001001010011111111111111111 D
b100001001010011111111111111111 W#
b100001001010011111111111111111 Z#
b11000 6
b11000 e#
b1001 .
b1001 /#
b1001 ;#
b1001 d#
b1001 i#
b1100100 1
b1100100 b#
b1010 9
b1010 *#
b1010 -#
b1100 ;
b1100 )#
b1010 7
b1010 ,#
b1010 .#
b1010 5#
b1010 _#
b0 <
b0 j"
b0 (#
b0 ]#
1B
1@
1>
b100 f
b100 N#
b1011 b
b1011 '#
b1011 0#
b1011 R#
b100 i
b100 3"
b100 K#
b10000000000100 a
b10000000000100 S#
b1000000000100000 j
b1000000000100000 "#
b10000 g
b10000 M#
b100001000010000000000000000100 O
b100001000010000000000000000100 X#
b10100 M
b10100 I#
b10100 Y#
b11000 4
b11000 U#
b10100 5
b10100 [#
b10100 f#
1!
#60
0!
#65
1}
b0 b"
b0 c"
b0 a"
b10 w"
1v"
0u"
b0 t"
b0 s"
b1 z
b1 r"
b1 $"
b1 x"
1!
#70
0!
#75
1~
1!
#80
0!
#85
b1 !"
b1 h"
b1 }"
b100 ""
b100 p"
b100 {"
1}
b1 y"
1!
#90
0!
#95
b10 !"
b10 h"
b10 }"
b1000 ""
b1000 p"
b1000 {"
1}
b10 y"
1!
#100
0!
#105
b11 !"
b11 h"
b11 }"
b1100 ""
b1100 p"
b1100 {"
1}
b11 y"
1!
#110
0!
#115
b100 !"
b100 h"
b100 }"
b10000 ""
b10000 p"
b10000 {"
1}
b100 y"
1!
#120
0!
#125
b101 !"
b101 h"
b101 }"
b10100 ""
b10100 p"
b10100 {"
1}
b101 y"
1!
#130
0!
#135
b110 !"
b110 h"
b110 }"
b11000 ""
b11000 p"
b11000 {"
1}
b110 y"
1!
#140
0!
#145
b111 !"
b111 h"
b111 }"
b11100 ""
b11100 p"
b11100 {"
1}
b111 y"
1!
#150
0!
#155
0`#
0$#
0F#
0V#
1,
1(
1*
1+
1-
0y
b0 !"
b0 h"
b0 }"
1Y"
b0 d"
0f"
0]"
b0 ""
b0 p"
b0 {"
0}
1["
b0 y"
b0 w"
1n"
b111 z"
1!
#160
0!
#165
1`#
1$#
1F#
xV#
0,
0(
0*
x+
x-
1y
b100 k
b100 1"
b100 !#
b100 l
b100 &"
b0 :
b0 e"
b0 ^#
0Y"
1Q
1Z
b1100100 J
b1100100 G#
b1100100 k#
b1100100 K
b1100100 H#
b1100100 l#
bx d"
0["
b10101001000001111111111111011 D
b10101001000001111111111111011 W#
b10101001000001111111111111011 Z#
b11100 6
b11100 e#
b11111111111111111111111111111111 G
b11111111111111111111111111111111 D#
b111111 P
b111111 K"
b111111 ?#
b11111 F
b11111 E#
b11111 L
b11111 A#
b1001 H
b1001 8#
b1001 C#
b1001 h#
b1001 I
b1001 7#
b1001 B#
b1001 g#
b1000 _
b1000 ##
b1000 6#
b1 _"
b10 `"
b0 /
b0 j#
0n"
b11100 4
b11100 U#
b11000 5
b11000 [#
b11000 f#
b100001001010011111111111111111 O
b100001001010011111111111111111 X#
b11000 M
b11000 I#
b11000 Y#
b0 f
b0 N#
b1000 b
b1000 '#
b1000 0#
b1000 R#
b1000 h
b1000 2"
b1000 L#
b100 a
b100 S#
b100100 j
b100100 "#
b10100 g
b10100 M#
0r
0p
b1011 9
b1011 *#
b1011 -#
b1000000000100000 ;
b1000000000100000 )#
b1011 7
b1011 ,#
b1011 .#
b1011 5#
b1011 _#
b10000000000100 <
b10000000000100 j"
b10000000000100 (#
b10000000000100 ]#
0B
0~
b1010 .
b1010 /#
b1010 ;#
b1010 d#
b1010 i#
b0 1
b0 b#
13
1!
#170
0!
#175
b10000000000000 ""
b10000000000000 p"
b10000000000000 {"
1}
b10 b"
b1 a"
b10 w"
0v"
b10000000000100 s"
b10 z
b10 r"
b10 $"
b10 x"
1!
#180
0!
#185
1~
1!
#190
0!
#195
b1 !"
b1 h"
b1 }"
b10000000000100 ""
b10000000000100 p"
b10000000000100 {"
1}
b1 y"
1!
#200
0!
#205
b10 !"
b10 h"
b10 }"
b10000000001000 ""
b10000000001000 p"
b10000000001000 {"
1}
b10 y"
1!
#210
0!
#215
b11 !"
b11 h"
b11 }"
b10000000001100 ""
b10000000001100 p"
b10000000001100 {"
1}
b11 y"
1!
#220
0!
#225
b100 !"
b100 h"
b100 }"
b10000000010000 ""
b10000000010000 p"
b10000000010000 {"
1}
b100 y"
1!
#230
0!
#235
b101 !"
b101 h"
b101 }"
b10000000010100 ""
b10000000010100 p"
b10000000010100 {"
1}
b101 y"
1!
#240
0!
#245
b110 !"
b110 h"
b110 }"
b10000000011000 ""
b10000000011000 p"
b10000000011000 {"
1}
b110 y"
1!
#250
0!
#255
b111 !"
b111 h"
b111 }"
b10000000011100 ""
b10000000011100 p"
b10000000011100 {"
1}
b111 y"
1!
#260
0!
#265
0`#
0$#
0F#
0V#
b1 :
b1 e"
b1 ^#
1,
1(
1*
1+
1-
0y
b0 !"
b0 h"
b0 }"
1Y"
1f"
1]"
b1 d"
b0 ""
b0 p"
b0 {"
0}
1Z"
b0 y"
b0 w"
1n"
b111 z"
1!
#270
0!
#275
14#
b11111111111111111111111111111111 l
b11111111111111111111111111111111 &"
b1100011 k
b1100011 1"
b1100011 !#
0Z"
1["
b0 :
b0 e"
b0 ^#
b1100100 m
b1100100 %"
b0 J
b0 G#
b0 k#
b1 [
b1 X"
b1 >#
1Y
0Q
0Z
b1 /
b1 j#
b0 `"
b1001 _
b1001 ##
b1001 6#
b11111111111111111111111111111011 G
b11111111111111111111111111111011 D#
b111011 P
b111011 K"
b111011 ?#
b0 H
b0 8#
b0 C#
b0 h#
b101 N
b101 L"
b101 @#
b11111111111111111111111111111111 D
b11111111111111111111111111111111 W#
b11111111111111111111111111111111 Z#
b100000 6
b100000 e#
0n"
b1011 .
b1011 /#
b1011 ;#
b1011 d#
b1011 i#
b1 0
b1 c#
b10000000000100 1
b10000000000100 b#
0~
b1000 9
b1000 *#
b1000 -#
b100100 ;
b100100 )#
b1000 7
b1000 ,#
b1000 .#
b1000 5#
b1000 _#
b100 <
b100 j"
b100 (#
b100 ]#
0@
0>
b11111 `
b11111 T#
b11111 f
b11111 N#
b1001 b
b1001 '#
b1001 0#
b1001 R#
b1001 c
b1001 1#
b1001 Q#
b111111 i
b111111 3"
b111111 K#
b11111111111111111111111111111111 a
b11111111111111111111111111111111 S#
b1100100 d
b1100100 &#
b1100100 P#
b1100100 e
b1100100 O#
b10100 j
b10100 "#
b11000 g
b11000 M#
b10101001000001111111111111011 O
b10101001000001111111111111011 X#
b11100 M
b11100 I#
b11100 Y#
b100000 4
b100000 U#
b11100 5
b11100 [#
b11100 f#
1!
#280
0!
