mips_test_3.vcd
$date
	Tue Nov 11 19:00:34 2025
$end
$version
	Icarus Verilog
$end
$timescale
	1s
$end
$scope module sc_mips_test $end
$var reg 1 ! clk $end
$var reg 1 " rst $end
$var integer 32 # i [31:0] $end
$scope module processor $end
$var wire 1 ! clk $end
$var wire 1 $ isBranchTaken $end
$var wire 1 % isShift $end
$var wire 32 & mem_addr [31:0] $end
$var wire 5 ' read_addr1 [4:0] $end
$var wire 5 ( read_addr2 [4:0] $end
$var wire 1 " rst $end
$var wire 32 ) write_memdata [31:0] $end
$var wire 32 * write_regdata [31:0] $end
$var wire 5 + write_addr [4:0] $end
$var wire 5 , shamt [4:0] $end
$var wire 32 - sext_imm [31:0] $end
$var wire 5 . rt [4:0] $end
$var wire 5 / rs [4:0] $end
$var wire 32 0 read_regdata2 [31:0] $end
$var wire 32 1 read_regdata1 [31:0] $end
$var wire 32 2 read_memdata [31:0] $end
$var wire 5 3 rd [4:0] $end
$var wire 32 4 pc_plus_4 [31:0] $end
$var wire 32 5 pc_out [31:0] $end
$var wire 6 6 opcode [5:0] $end
$var wire 32 7 jump_target [31:0] $end
$var wire 26 8 jump_addr [25:0] $end
$var wire 1 9 isAluZero $end
$var wire 32 : instr [31:0] $end
$var wire 16 ; imm [15:0] $end
$var wire 6 < funct [5:0] $end
$var wire 32 = branch_target [31:0] $end
$var wire 32 > alu_result [31:0] $end
$var wire 2 ? alu_op [1:0] $end
$var wire 32 @ SrcB [31:0] $end
$var wire 32 A SrcA [31:0] $end
$var wire 1 B RegWrite $end
$var wire 1 C RegDst $end
$var wire 1 D MemtoReg $end
$var wire 1 E MemWrite $end
$var wire 1 F MemRead $end
$var wire 1 G Jump $end
$var wire 1 H Jr $end
$var wire 1 I Jal $end
$var wire 1 J Branch $end
$var wire 1 K ALUSrc $end
$var wire 4 L ALUControl [3:0] $end
$var reg 32 M pc [31:0] $end
$scope module ALU $end
$var wire 32 N a [31:0] $end
$var wire 32 O b [31:0] $end
$var wire 1 9 Zero $end
$var wire 4 P ALUControl [3:0] $end
$var parameter 4 Q ADD $end
$var parameter 4 R AND $end
$var parameter 4 S MUL $end
$var parameter 4 T NOR $end
$var parameter 4 U OR $end
$var parameter 4 V SLL $end
$var parameter 4 W SLT $end
$var parameter 4 X SRL $end
$var parameter 4 Y SUB $end
$var reg 32 Z result [31:0] $end
$upscope $end
$scope module Control_Unit $end
$var wire 6 [ funct [5:0] $end
$var wire 6 \ opcode [5:0] $end
$var parameter 6 ] OP_ADDI $end
$var parameter 6 ^ OP_ANDI $end
$var parameter 6 _ OP_BEQ $end
$var parameter 6 ` OP_BNE $end
$var parameter 6 a OP_JAL $end
$var parameter 6 b OP_JUMP $end
$var parameter 6 c OP_LW $end
$var parameter 6 d OP_ORI $end
$var parameter 6 e OP_RTYPE $end
$var parameter 6 f OP_SLT $end
$var parameter 6 g OP_SW $end
$var reg 1 K ALUSrc $end
$var reg 1 J Branch $end
$var reg 1 I Jal $end
$var reg 1 H Jr $end
$var reg 1 G Jump $end
$var reg 1 F MemRead $end
$var reg 1 E MemWrite $end
$var reg 1 D MemtoReg $end
$var reg 1 C RegDst $end
$var reg 1 B RegWrite $end
$var reg 2 h alu_op [1:0] $end
$upscope $end
$scope module alu_ctrl $end
$var wire 2 i alu_op [1:0] $end
$var wire 6 j funct [5:0] $end
$var wire 6 k opcode [5:0] $end
$var parameter 4 l ALU_ADD $end
$var parameter 4 m ALU_AND $end
$var parameter 4 n ALU_MUL $end
$var parameter 4 o ALU_NOR $end
$var parameter 4 p ALU_OR $end
$var parameter 4 q ALU_SLL $end
$var parameter 4 r ALU_SLT $end
$var parameter 4 s ALU_SRL $end
$var parameter 4 t ALU_SUB $end
$var parameter 6 u FUNCT_ADD $end
$var parameter 6 v FUNCT_AND $end
$var parameter 6 w FUNCT_JR $end
$var parameter 6 x FUNCT_MUL $end
$var parameter 6 y FUNCT_NOR $end
$var parameter 6 z FUNCT_OR $end
$var parameter 6 { FUNCT_SLL $end
$var parameter 6 | FUNCT_SLT $end
$var parameter 6 } FUNCT_SRL $end
$var parameter 6 ~ FUNCT_SUB $end
$var parameter 6 !" OP_ANDI $end
$var parameter 6 "" OP_ORI $end
$var reg 4 #" ALUControl [3:0] $end
$upscope $end
$scope module dmem $end
$var wire 1 F MemRead $end
$var wire 1 E MemWrite $end
$var wire 32 $" addr [31:0] $end
$var wire 1 ! clk $end
$var wire 32 %" rd [31:0] $end
$var wire 32 &" wd [31:0] $end
$var integer 32 '" i [31:0] $end
$upscope $end
$scope module imem $end
$var wire 32 (" addr [31:0] $end
$var wire 32 )" instr [31:0] $end
$var integer 32 *" i [31:0] $end
$upscope $end
$scope module rf $end
$var wire 1 ! clk $end
$var wire 5 +" ra1 [4:0] $end
$var wire 5 ," ra2 [4:0] $end
$var wire 5 -" wa [4:0] $end
$var wire 32 ." wd [31:0] $end
$var wire 1 B we $end
$var wire 32 /" rd2 [31:0] $end
$var wire 32 0" rd1 [31:0] $end
$var integer 32 1" i [31:0] $end
$upscope $end
$upscope $end
$upscope $end
$enddefinitions $end
$comment Show the parameter values. $end
$dumpall
b1101 ""
b1100 !"
b100010 ~
b10 }
b101010 |
b0 {
b100101 z
b100111 y
b11000 x
b1000 w
b100100 v
b100000 u
b100 t
b111 s
b1000 r
b110 q
b1 p
b10 o
b101 n
b0 m
b11 l
b101011 g
b1010 f
b0 e
b1101 d
b100011 c
b10 b
b11 a
b101 `
b100 _
b1100 ^
b1000 ]
b100 Y
b111 X
b1000 W
b110 V
b1 U
b10 T
b101 S
b0 R
b11 Q
$end
#0
$dumpvars
b100000 1"
b0 0"
b0 /"
b0 ."
b0 -"
b0 ,"
b0 +"
b10000000 *"
b0 )"
b0 ("
b10000000 '"
b0 &"
b0 %"
b0 $"
b110 #"
b0 k
b0 j
b10 i
b10 h
b0 \
b0 [
b0 Z
b110 P
b0 O
b0 N
b0 M
b110 L
0K
0J
0I
0H
0G
0F
0E
0D
1C
1B
b0 A
b0 @
b10 ?
b0 >
b100 =
b0 <
b0 ;
b0 :
19
b0 8
b0 7
b0 6
b100 5
b100 4
b0 3
b0 2
b0 1
b0 0
b0 /
b0 .
b0 -
b0 ,
b0 +
b0 *
b0 )
b0 (
b0 '
b0 &
1%
0$
bx #
1"
0!
$end
#5
1!
#10
b110 *
b110 ."
b100 +
b100 -"
09
b110 &
b110 >
b110 Z
b110 $"
b110 @
b110 O
b11100 =
0%
1K
1B
0C
b0 ?
b0 h
b0 i
b11 L
b11 P
b11 #"
b100000000000000011000 7
b1000000000000000110 8
b110 -
b110 ;
b110 <
b110 [
b110 j
b100 (
b100 ,"
b100 .
b1000 6
b1000 \
b1000 k
0!
b100000000001000000000000000110 :
b100000000001000000000000000110 )"
0"
#15
19
b0 &
b0 >
b0 Z
b0 $"
b1000 *
b1000 ."
b11111 +
b11111 -"
b10000 5
b0 @
b0 O
1I
1G
1B
0K
b10000 7
b100 8
b100 -
b100 ;
b100 <
b100 [
b100 j
b0 (
b0 ,"
b0 .
b11 6
b11 \
b11 k
b0 )
b0 &"
b0 0
b0 /"
b1100000000000000000000000100 :
b1100000000000000000000000100 )"
b11000 =
b1000 4
b100 M
b100 ("
1!
#20
0!
#25
09
b11111111111111111111111111111000 &
b11111111111111111111111111111000 >
b11111111111111111111111111111000 Z
b11111111111111111111111111111000 $"
b10100 5
b11111111111111111111111111111000 @
b11111111111111111111111111111000 O
b11101 +
b11101 -"
1K
0I
0G
1B
b1110111101111111111111100000 7
b11101111011111111111111000 8
b11111111111111111111111111111000 -
b1111111111111000 ;
b111000 <
b111000 [
b111000 j
b11111 ,
b11111 3
b11101 (
b11101 ,"
b11101 .
b11101 '
b11101 +"
b11101 /
b1000 6
b1000 \
b1000 k
b11111111111111111111111111111000 *
b11111111111111111111111111111000 ."
b100011101111011111111111111000 :
b100011101111011111111111111000 )"
b11111111111111111111111111110100 =
b10100 4
b10000 M
b10000 ("
1!
#30
0!
#35
b11111111111111111111111111111100 *
b11111111111111111111111111111100 ."
b100 +
b100 -"
b11111111111111111111111111111100 &
b11111111111111111111111111111100 >
b11111111111111111111111111111100 Z
b11111111111111111111111111111100 $"
b11000 5
b100 @
b100 O
1E
0B
1K
b11111111111111111111111111111000 A
b11111111111111111111111111111000 N
b1110100100000000000000010000 7
b11101001000000000000000100 8
b100 -
b100 ;
b100 <
b100 [
b100 j
b0 ,
b0 3
b100 (
b100 ,"
b100 .
b101011 6
b101011 \
b101011 k
b11111111111111111111111111111000 1
b11111111111111111111111111111000 0"
b110 )
b110 &"
b110 0
b110 /"
b10101111101001000000000000000100 :
b10101111101001000000000000000100 )"
b101000 =
b11000 4
b10100 M
b10100 ("
1!
#40
0!
#45
b11111111111111111111111111111000 *
b11111111111111111111111111111000 ."
b11111111111111111111111111111000 &
b11111111111111111111111111111000 >
b11111111111111111111111111111000 Z
b11111111111111111111111111111000 $"
b11111 +
b11111 -"
b11100 5
b0 @
b0 O
1K
1E
b1000 )
b1000 &"
b1000 0
b1000 /"
b1110111111000000000000000000 7
b11101111110000000000000000 8
b0 -
b0 ;
b0 <
b0 [
b0 j
b11111 (
b11111 ,"
b11111 .
b10101111101111110000000000000000 :
b10101111101111110000000000000000 )"
b0 2
b0 %"
b11100 =
b11100 4
b11000 M
b11000 ("
1!
#50
0!
#55
b10 *
b10 ."
b10 &
b10 >
b10 Z
b10 $"
b1000 +
b1000 -"
b0 A
b0 N
b100000 5
b10 @
b10 O
b0 )
b0 &"
b0 0
b0 /"
b0 1
b0 0"
1B
1K
0E
b1000000000000000001000 7
b10000000000000000010 8
b10 -
b10 ;
b10 <
b10 [
b10 j
b1000 (
b1000 ,"
b1000 .
b0 '
b0 +"
b0 /
b1000 6
b1000 \
b1000 k
b100000000010000000000000000010 :
b100000000010000000000000000010 )"
b0 2
b0 %"
b101000 =
b100000 4
b11100 M
b11100 ("
1!
#60
0!
#65
19
b0 *
b0 ."
b110 A
b110 N
b0 &
b0 >
b0 Z
b0 $"
b1000 L
b1000 P
b1000 #"
b100100 5
b110 1
b110 0"
0%
b10 ?
b10 h
b10 i
1C
1B
0K
b10001000010000000010101000 7
b100010000100000000101010 8
b100000000101010 -
b100000000101010 ;
b101010 <
b101010 [
b101010 j
b1000 3
b100 '
b100 +"
b100 /
b0 6
b0 \
b0 k
b10 )
b10 &"
b10 0
b10 /"
b100010000100000000101010 :
b100010000100000000101010 )"
b10000000011001100 =
b100100 4
b100000 M
b100000 ("
1!
#70
0!
#75
1$
b0 +
b0 -"
b0 A
b0 N
b110100 5
b0 1
b0 0"
1J
0B
0C
b1 ?
b1 h
b1 i
b100 L
b100 P
b100 #"
b0 @
b0 O
b100000000000000000000001100 7
b1000000000000000000000011 8
b11 -
b11 ;
b11 <
b11 [
b11 j
b0 3
b0 (
b0 ,"
b0 .
b1000 '
b1000 +"
b1000 /
b100 6
b100 \
b100 k
b0 )
b0 &"
b0 0
b0 /"
b10001000000000000000000000011 :
b10001000000000000000000000011 )"
b110100 =
b101000 4
b100100 M
b100100 ("
1!
#80
0!
#85
b101 *
b101 ."
0$
09
b101 &
b101 >
b101 Z
b101 $"
b100 +
b100 -"
b110 A
b110 N
b11111111111111111111111111111111 @
b11111111111111111111111111111111 O
b11 L
b11 P
b11 #"
b111000 5
b110 )
b110 &"
b110 0
b110 /"
b110 1
b110 0"
1K
1B
0J
b0 ?
b0 h
b0 i
b10000100111111111111111100 7
b100001001111111111111111 8
b11111111111111111111111111111111 -
b1111111111111111 ;
b111111 <
b111111 [
b111111 j
b11111 ,
b11111 3
b100 (
b100 ,"
b100 .
b100 '
b100 +"
b100 /
b1000 6
b1000 \
b1000 k
b100000100001001111111111111111 :
b100000100001001111111111111111 )"
b110100 =
b111000 4
b110100 M
b110100 ("
1!
#90
0!
#95
19
b0 &
b0 >
b0 Z
b0 $"
b111100 *
b111100 ."
b11111 +
b11111 -"
b10000 5
b0 @
b0 O
1I
1G
1B
0K
b0 A
b0 N
b10000 7
b100 8
b100 -
b100 ;
b100 <
b100 [
b100 j
b0 ,
b0 3
b0 (
b0 ,"
b0 .
b0 '
b0 +"
b0 /
b11 6
b11 \
b11 k
b0 1
b0 0"
b0 )
b0 &"
b0 0
b0 /"
b1100000000000000000000000100 :
b1100000000000000000000000100 )"
b1001100 =
b111100 4
b111000 M
b111000 ("
1!
#100
0!
#105
09
b11111111111111111111111111110000 &
b11111111111111111111111111110000 >
b11111111111111111111111111110000 Z
b11111111111111111111111111110000 $"
b10100 5
b11111111111111111111111111111000 A
b11111111111111111111111111111000 N
b11111111111111111111111111111000 @
b11111111111111111111111111111000 O
b11101 +
b11101 -"
b11111111111111111111111111111000 )
b11111111111111111111111111111000 &"
b11111111111111111111111111111000 0
b11111111111111111111111111111000 /"
b11111111111111111111111111111000 1
b11111111111111111111111111111000 0"
1K
0I
0G
1B
b1110111101111111111111100000 7
b11101111011111111111111000 8
b11111111111111111111111111111000 -
b1111111111111000 ;
b111000 <
b111000 [
b111000 j
b11111 ,
b11111 3
b11101 (
b11101 ,"
b11101 .
b11101 '
b11101 +"
b11101 /
b1000 6
b1000 \
b1000 k
b11111111111111111111111111110000 *
b11111111111111111111111111110000 ."
b100011101111011111111111111000 :
b100011101111011111111111111000 )"
b11111111111111111111111111110100 =
b10100 4
b10000 M
b10000 ("
1!
#110
0!
#115
b11111111111111111111111111110100 *
b11111111111111111111111111110100 ."
b100 +
b100 -"
b11111111111111111111111111110100 &
b11111111111111111111111111110100 >
b11111111111111111111111111110100 Z
b11111111111111111111111111110100 $"
b11000 5
b100 @
b100 O
1E
0B
1K
b11111111111111111111111111110000 A
b11111111111111111111111111110000 N
b1110100100000000000000010000 7
b11101001000000000000000100 8
b100 -
b100 ;
b100 <
b100 [
b100 j
b0 ,
b0 3
b100 (
b100 ,"
b100 .
b101011 6
b101011 \
b101011 k
b11111111111111111111111111110000 1
b11111111111111111111111111110000 0"
b101 )
b101 &"
b101 0
b101 /"
b10101111101001000000000000000100 :
b10101111101001000000000000000100 )"
b101000 =
b11000 4
b10100 M
b10100 ("
1!
#120
0!
#125
b11111111111111111111111111110000 *
b11111111111111111111111111110000 ."
b11111111111111111111111111110000 &
b11111111111111111111111111110000 >
b11111111111111111111111111110000 Z
b11111111111111111111111111110000 $"
b11111 +
b11111 -"
b11100 5
b0 @
b0 O
1K
1E
b111100 )
b111100 &"
b111100 0
b111100 /"
b1110111111000000000000000000 7
b11101111110000000000000000 8
b0 -
b0 ;
b0 <
b0 [
b0 j
b11111 (
b11111 ,"
b11111 .
b10101111101111110000000000000000 :
b10101111101111110000000000000000 )"
b0 2
b0 %"
b11100 =
b11100 4
b11000 M
b11000 ("
1!
#130
0!
#135
b10 *
b10 ."
b10 &
b10 >
b10 Z
b10 $"
b1000 +
b1000 -"
b0 A
b0 N
b100000 5
b10 @
b10 O
b0 )
b0 &"
b0 0
b0 /"
b0 1
b0 0"
1B
1K
0E
b1000000000000000001000 7
b10000000000000000010 8
b10 -
b10 ;
b10 <
b10 [
b10 j
b1000 (
b1000 ,"
b1000 .
b0 '
b0 +"
b0 /
b1000 6
b1000 \
b1000 k
b100000000010000000000000000010 :
b100000000010000000000000000010 )"
b0 2
b0 %"
b101000 =
b100000 4
b11100 M
b11100 ("
1!
#140
0!
#145
19
b0 *
b0 ."
b101 A
b101 N
b0 &
b0 >
b0 Z
b0 $"
b1000 L
b1000 P
b1000 #"
b100100 5
b101 1
b101 0"
0%
b10 ?
b10 h
b10 i
1C
1B
0K
b10001000010000000010101000 7
b100010000100000000101010 8
b100000000101010 -
b100000000101010 ;
b101010 <
b101010 [
b101010 j
b1000 3
b100 '
b100 +"
b100 /
b0 6
b0 \
b0 k
b10 )
b10 &"
b10 0
b10 /"
b100010000100000000101010 :
b100010000100000000101010 )"
b10000000011001100 =
b100100 4
b100000 M
b100000 ("
1!
#150
0!
#155
1$
b0 +
b0 -"
b0 A
b0 N
b110100 5
b0 1
b0 0"
1J
0B
0C
b1 ?
b1 h
b1 i
b100 L
b100 P
b100 #"
b0 @
b0 O
b100000000000000000000001100 7
b1000000000000000000000011 8
b11 -
b11 ;
b11 <
b11 [
b11 j
b0 3
b0 (
b0 ,"
b0 .
b1000 '
b1000 +"
b1000 /
b100 6
b100 \
b100 k
b0 )
b0 &"
b0 0
b0 /"
b10001000000000000000000000011 :
b10001000000000000000000000011 )"
b110100 =
b101000 4
b100100 M
b100100 ("
1!
#160
0!
#165
b100 *
b100 ."
0$
09
b100 &
b100 >
b100 Z
b100 $"
b100 +
b100 -"
b101 A
b101 N
b11111111111111111111111111111111 @
b11111111111111111111111111111111 O
b11 L
b11 P
b11 #"
b111000 5
b101 )
b101 &"
b101 0
b101 /"
b101 1
b101 0"
1K
1B
0J
b0 ?
b0 h
b0 i
b10000100111111111111111100 7
b100001001111111111111111 8
b11111111111111111111111111111111 -
b1111111111111111 ;
b111111 <
b111111 [
b111111 j
b11111 ,
b11111 3
b100 (
b100 ,"
b100 .
b100 '
b100 +"
b100 /
b1000 6
b1000 \
b1000 k
b100000100001001111111111111111 :
b100000100001001111111111111111 )"
b110100 =
b111000 4
b110100 M
b110100 ("
1!
#170
0!
#175
19
b0 &
b0 >
b0 Z
b0 $"
b111100 *
b111100 ."
b11111 +
b11111 -"
b10000 5
b0 @
b0 O
1I
1G
1B
0K
b0 A
b0 N
b10000 7
b100 8
b100 -
b100 ;
b100 <
b100 [
b100 j
b0 ,
b0 3
b0 (
b0 ,"
b0 .
b0 '
b0 +"
b0 /
b11 6
b11 \
b11 k
b0 1
b0 0"
b0 )
b0 &"
b0 0
b0 /"
b1100000000000000000000000100 :
b1100000000000000000000000100 )"
b1001100 =
b111100 4
b111000 M
b111000 ("
1!
#180
0!
#185
09
b11111111111111111111111111101000 &
b11111111111111111111111111101000 >
b11111111111111111111111111101000 Z
b11111111111111111111111111101000 $"
b10100 5
b11111111111111111111111111110000 A
b11111111111111111111111111110000 N
b11111111111111111111111111111000 @
b11111111111111111111111111111000 O
b11101 +
b11101 -"
b11111111111111111111111111110000 )
b11111111111111111111111111110000 &"
b11111111111111111111111111110000 0
b11111111111111111111111111110000 /"
b11111111111111111111111111110000 1
b11111111111111111111111111110000 0"
1K
0I
0G
1B
b1110111101111111111111100000 7
b11101111011111111111111000 8
b11111111111111111111111111111000 -
b1111111111111000 ;
b111000 <
b111000 [
b111000 j
b11111 ,
b11111 3
b11101 (
b11101 ,"
b11101 .
b11101 '
b11101 +"
b11101 /
b1000 6
b1000 \
b1000 k
b11111111111111111111111111101000 *
b11111111111111111111111111101000 ."
b100011101111011111111111111000 :
b100011101111011111111111111000 )"
b11111111111111111111111111110100 =
b10100 4
b10000 M
b10000 ("
1!
#190
0!
#195
b11111111111111111111111111101100 *
b11111111111111111111111111101100 ."
b100 +
b100 -"
b11111111111111111111111111101100 &
b11111111111111111111111111101100 >
b11111111111111111111111111101100 Z
b11111111111111111111111111101100 $"
b11000 5
b100 @
b100 O
1E
0B
1K
b11111111111111111111111111101000 A
b11111111111111111111111111101000 N
b1110100100000000000000010000 7
b11101001000000000000000100 8
b100 -
b100 ;
b100 <
b100 [
b100 j
b0 ,
b0 3
b100 (
b100 ,"
b100 .
b101011 6
b101011 \
b101011 k
b11111111111111111111111111101000 1
b11111111111111111111111111101000 0"
b100 )
b100 &"
b100 0
b100 /"
b10101111101001000000000000000100 :
b10101111101001000000000000000100 )"
b101000 =
b11000 4
b10100 M
b10100 ("
1!
#200
0!
#205
b11111111111111111111111111101000 *
b11111111111111111111111111101000 ."
b11111111111111111111111111101000 &
b11111111111111111111111111101000 >
b11111111111111111111111111101000 Z
b11111111111111111111111111101000 $"
b11111 +
b11111 -"
b11100 5
b0 @
b0 O
1K
1E
b111100 )
b111100 &"
b111100 0
b111100 /"
b1110111111000000000000000000 7
b11101111110000000000000000 8
b0 -
b0 ;
b0 <
b0 [
b0 j
b11111 (
b11111 ,"
b11111 .
b10101111101111110000000000000000 :
b10101111101111110000000000000000 )"
b0 2
b0 %"
b11100 =
b11100 4
b11000 M
b11000 ("
1!
#210
0!
#215
b10 *
b10 ."
b10 &
b10 >
b10 Z
b10 $"
b1000 +
b1000 -"
b0 A
b0 N
b100000 5
b10 @
b10 O
b0 )
b0 &"
b0 0
b0 /"
b0 1
b0 0"
1B
1K
0E
b1000000000000000001000 7
b10000000000000000010 8
b10 -
b10 ;
b10 <
b10 [
b10 j
b1000 (
b1000 ,"
b1000 .
b0 '
b0 +"
b0 /
b1000 6
b1000 \
b1000 k
b100000000010000000000000000010 :
b100000000010000000000000000010 )"
b0 2
b0 %"
b101000 =
b100000 4
b11100 M
b11100 ("
1!
#220
0!
#225
19
b0 *
b0 ."
b100 A
b100 N
b0 &
b0 >
b0 Z
b0 $"
b1000 L
b1000 P
b1000 #"
b100100 5
b100 1
b100 0"
0%
b10 ?
b10 h
b10 i
1C
1B
0K
b10001000010000000010101000 7
b100010000100000000101010 8
b100000000101010 -
b100000000101010 ;
b101010 <
b101010 [
b101010 j
b1000 3
b100 '
b100 +"
b100 /
b0 6
b0 \
b0 k
b10 )
b10 &"
b10 0
b10 /"
b100010000100000000101010 :
b100010000100000000101010 )"
b10000000011001100 =
b100100 4
b100000 M
b100000 ("
1!
#230
0!
#235
1$
b0 +
b0 -"
b0 A
b0 N
b110100 5
b0 1
b0 0"
1J
0B
0C
b1 ?
b1 h
b1 i
b100 L
b100 P
b100 #"
b0 @
b0 O
b100000000000000000000001100 7
b1000000000000000000000011 8
b11 -
b11 ;
b11 <
b11 [
b11 j
b0 3
b0 (
b0 ,"
b0 .
b1000 '
b1000 +"
b1000 /
b100 6
b100 \
b100 k
b0 )
b0 &"
b0 0
b0 /"
b10001000000000000000000000011 :
b10001000000000000000000000011 )"
b110100 =
b101000 4
b100100 M
b100100 ("
1!
#240
0!
#245
b11 *
b11 ."
0$
09
b11 &
b11 >
b11 Z
b11 $"
b100 +
b100 -"
b100 A
b100 N
b11111111111111111111111111111111 @
b11111111111111111111111111111111 O
b11 L
b11 P
b11 #"
b111000 5
b100 )
b100 &"
b100 0
b100 /"
b100 1
b100 0"
1K
1B
0J
b0 ?
b0 h
b0 i
b10000100111111111111111100 7
b100001001111111111111111 8
b11111111111111111111111111111111 -
b1111111111111111 ;
b111111 <
b111111 [
b111111 j
b11111 ,
b11111 3
b100 (
b100 ,"
b100 .
b100 '
b100 +"
b100 /
b1000 6
b1000 \
b1000 k
b100000100001001111111111111111 :
b100000100001001111111111111111 )"
b110100 =
b111000 4
b110100 M
b110100 ("
1!
#250
0!
#255
19
b0 &
b0 >
b0 Z
b0 $"
b111100 *
b111100 ."
b11111 +
b11111 -"
b10000 5
b0 @
b0 O
1I
1G
1B
0K
b0 A
b0 N
b10000 7
b100 8
b100 -
b100 ;
b100 <
b100 [
b100 j
b0 ,
b0 3
b0 (
b0 ,"
b0 .
b0 '
b0 +"
b0 /
b11 6
b11 \
b11 k
b0 1
b0 0"
b0 )
b0 &"
b0 0
b0 /"
b1100000000000000000000000100 :
b1100000000000000000000000100 )"
b1001100 =
b111100 4
b111000 M
b111000 ("
1!
#260
0!
#265
09
b11111111111111111111111111100000 &
b11111111111111111111111111100000 >
b11111111111111111111111111100000 Z
b11111111111111111111111111100000 $"
b10100 5
b11111111111111111111111111101000 A
b11111111111111111111111111101000 N
b11111111111111111111111111111000 @
b11111111111111111111111111111000 O
b11101 +
b11101 -"
b11111111111111111111111111101000 )
b11111111111111111111111111101000 &"
b11111111111111111111111111101000 0
b11111111111111111111111111101000 /"
b11111111111111111111111111101000 1
b11111111111111111111111111101000 0"
1K
0I
0G
1B
b1110111101111111111111100000 7
b11101111011111111111111000 8
b11111111111111111111111111111000 -
b1111111111111000 ;
b111000 <
b111000 [
b111000 j
b11111 ,
b11111 3
b11101 (
b11101 ,"
b11101 .
b11101 '
b11101 +"
b11101 /
b1000 6
b1000 \
b1000 k
b11111111111111111111111111100000 *
b11111111111111111111111111100000 ."
b100011101111011111111111111000 :
b100011101111011111111111111000 )"
b11111111111111111111111111110100 =
b10100 4
b10000 M
b10000 ("
1!
#270
0!
#275
b11111111111111111111111111100100 *
b11111111111111111111111111100100 ."
b100 +
b100 -"
b11111111111111111111111111100100 &
b11111111111111111111111111100100 >
b11111111111111111111111111100100 Z
b11111111111111111111111111100100 $"
b11000 5
b100 @
b100 O
1E
0B
1K
b11111111111111111111111111100000 A
b11111111111111111111111111100000 N
b1110100100000000000000010000 7
b11101001000000000000000100 8
b100 -
b100 ;
b100 <
b100 [
b100 j
b0 ,
b0 3
b100 (
b100 ,"
b100 .
b101011 6
b101011 \
b101011 k
b11111111111111111111111111100000 1
b11111111111111111111111111100000 0"
b11 )
b11 &"
b11 0
b11 /"
b10101111101001000000000000000100 :
b10101111101001000000000000000100 )"
b101000 =
b11000 4
b10100 M
b10100 ("
1!
#280
0!
#285
b11111111111111111111111111100000 *
b11111111111111111111111111100000 ."
b11111111111111111111111111100000 &
b11111111111111111111111111100000 >
b11111111111111111111111111100000 Z
b11111111111111111111111111100000 $"
b11111 +
b11111 -"
b11100 5
b0 @
b0 O
1K
1E
b111100 )
b111100 &"
b111100 0
b111100 /"
b1110111111000000000000000000 7
b11101111110000000000000000 8
b0 -
b0 ;
b0 <
b0 [
b0 j
b11111 (
b11111 ,"
b11111 .
b10101111101111110000000000000000 :
b10101111101111110000000000000000 )"
b0 2
b0 %"
b11100 =
b11100 4
b11000 M
b11000 ("
1!
#290
0!
#295
b10 *
b10 ."
b10 &
b10 >
b10 Z
b10 $"
b1000 +
b1000 -"
b0 A
b0 N
b100000 5
b10 @
b10 O
b0 )
b0 &"
b0 0
b0 /"
b0 1
b0 0"
1B
1K
0E
b1000000000000000001000 7
b10000000000000000010 8
b10 -
b10 ;
b10 <
b10 [
b10 j
b1000 (
b1000 ,"
b1000 .
b0 '
b0 +"
b0 /
b1000 6
b1000 \
b1000 k
b100000000010000000000000000010 :
b100000000010000000000000000010 )"
b0 2
b0 %"
b101000 =
b100000 4
b11100 M
b11100 ("
1!
#300
0!
#305
19
b0 *
b0 ."
b11 A
b11 N
b0 &
b0 >
b0 Z
b0 $"
b1000 L
b1000 P
b1000 #"
b100100 5
b11 1
b11 0"
0%
b10 ?
b10 h
b10 i
1C
1B
0K
b10001000010000000010101000 7
b100010000100000000101010 8
b100000000101010 -
b100000000101010 ;
b101010 <
b101010 [
b101010 j
b1000 3
b100 '
b100 +"
b100 /
b0 6
b0 \
b0 k
b10 )
b10 &"
b10 0
b10 /"
b100010000100000000101010 :
b100010000100000000101010 )"
b10000000011001100 =
b100100 4
b100000 M
b100000 ("
1!
#310
0!
#315
1$
b0 +
b0 -"
b0 A
b0 N
b110100 5
b0 1
b0 0"
1J
0B
0C
b1 ?
b1 h
b1 i
b100 L
b100 P
b100 #"
b0 @
b0 O
b100000000000000000000001100 7
b1000000000000000000000011 8
b11 -
b11 ;
b11 <
b11 [
b11 j
b0 3
b0 (
b0 ,"
b0 .
b1000 '
b1000 +"
b1000 /
b100 6
b100 \
b100 k
b0 )
b0 &"
b0 0
b0 /"
b10001000000000000000000000011 :
b10001000000000000000000000011 )"
b110100 =
b101000 4
b100100 M
b100100 ("
1!
#320
0!
#325
b10 *
b10 ."
0$
09
b10 &
b10 >
b10 Z
b10 $"
b100 +
b100 -"
b11 A
b11 N
b11111111111111111111111111111111 @
b11111111111111111111111111111111 O
b11 L
b11 P
b11 #"
b111000 5
b11 )
b11 &"
b11 0
b11 /"
b11 1
b11 0"
1K
1B
0J
b0 ?
b0 h
b0 i
b10000100111111111111111100 7
b100001001111111111111111 8
b11111111111111111111111111111111 -
b1111111111111111 ;
b111111 <
b111111 [
b111111 j
b11111 ,
b11111 3
b100 (
b100 ,"
b100 .
b100 '
b100 +"
b100 /
b1000 6
b1000 \
b1000 k
b100000100001001111111111111111 :
b100000100001001111111111111111 )"
b110100 =
b111000 4
b110100 M
b110100 ("
1!
#330
0!
#335
19
b0 &
b0 >
b0 Z
b0 $"
b111100 *
b111100 ."
b11111 +
b11111 -"
b10000 5
b0 @
b0 O
1I
1G
1B
0K
b0 A
b0 N
b10000 7
b100 8
b100 -
b100 ;
b100 <
b100 [
b100 j
b0 ,
b0 3
b0 (
b0 ,"
b0 .
b0 '
b0 +"
b0 /
b11 6
b11 \
b11 k
b0 1
b0 0"
b0 )
b0 &"
b0 0
b0 /"
b1100000000000000000000000100 :
b1100000000000000000000000100 )"
b1001100 =
b111100 4
b111000 M
b111000 ("
1!
#340
0!
#345
09
b11111111111111111111111111011000 &
b11111111111111111111111111011000 >
b11111111111111111111111111011000 Z
b11111111111111111111111111011000 $"
b10100 5
b11111111111111111111111111100000 A
b11111111111111111111111111100000 N
b11111111111111111111111111111000 @
b11111111111111111111111111111000 O
b11101 +
b11101 -"
b11111111111111111111111111100000 )
b11111111111111111111111111100000 &"
b11111111111111111111111111100000 0
b11111111111111111111111111100000 /"
b11111111111111111111111111100000 1
b11111111111111111111111111100000 0"
1K
0I
0G
1B
b1110111101111111111111100000 7
b11101111011111111111111000 8
b11111111111111111111111111111000 -
b1111111111111000 ;
b111000 <
b111000 [
b111000 j
b11111 ,
b11111 3
b11101 (
b11101 ,"
b11101 .
b11101 '
b11101 +"
b11101 /
b1000 6
b1000 \
b1000 k
b11111111111111111111111111011000 *
b11111111111111111111111111011000 ."
b100011101111011111111111111000 :
b100011101111011111111111111000 )"
b11111111111111111111111111110100 =
b10100 4
b10000 M
b10000 ("
1!
#350
0!
