mips_test_1.vcd
$date
	Mon Dec  1 19:35:11 2025
$end
$version
	Icarus Verilog
$end
$timescale
	1s
$end
$scope module sc_mips_test $end
$var reg 1 ! clk $end
$var reg 1 " rst $end
$var integer 32 # i [31:0] $end
$scope module processor $end
$var wire 1 ! clk $end
$var wire 1 $ isBranchTaken $end
$var wire 1 % isShift $end
$var wire 32 & mem_addr [31:0] $end
$var wire 5 ' read_addr1 [4:0] $end
$var wire 5 ( read_addr2 [4:0] $end
$var wire 1 " rst $end
$var wire 32 ) write_memdata [31:0] $end
$var wire 32 * write_regdata [31:0] $end
$var wire 5 + write_addr [4:0] $end
$var wire 5 , shamt [4:0] $end
$var wire 32 - sext_imm [31:0] $end
$var wire 5 . rt [4:0] $end
$var wire 5 / rs [4:0] $end
$var wire 32 0 read_regdata2 [31:0] $end
$var wire 32 1 read_regdata1 [31:0] $end
$var wire 32 2 read_memdata [31:0] $end
$var wire 5 3 rd [4:0] $end
$var wire 32 4 pc_plus_4 [31:0] $end
$var wire 32 5 pc_out [31:0] $end
$var wire 6 6 opcode [5:0] $end
$var wire 32 7 jump_target [31:0] $end
$var wire 26 8 jump_addr [25:0] $end
$var wire 1 9 isAluZero $end
$var wire 32 : instr [31:0] $end
$var wire 16 ; imm [15:0] $end
$var wire 6 < funct [5:0] $end
$var wire 32 = branch_target [31:0] $end
$var wire 32 > alu_result [31:0] $end
$var wire 2 ? alu_op [1:0] $end
$var wire 32 @ SrcB [31:0] $end
$var wire 32 A SrcA [31:0] $end
$var wire 1 B RegWrite $end
$var wire 1 C RegDst $end
$var wire 1 D MemtoReg $end
$var wire 1 E MemWrite $end
$var wire 1 F MemRead $end
$var wire 1 G Jump $end
$var wire 1 H Jr $end
$var wire 1 I Jal $end
$var wire 1 J Branch $end
$var wire 1 K ALUSrc $end
$var wire 4 L ALUControl [3:0] $end
$var reg 32 M pc [31:0] $end
$scope module ALU $end
$var wire 32 N a [31:0] $end
$var wire 32 O b [31:0] $end
$var wire 1 9 Zero $end
$var wire 4 P ALUControl [3:0] $end
$var parameter 4 Q ADD $end
$var parameter 4 R AND $end
$var parameter 4 S MUL $end
$var parameter 4 T NOR $end
$var parameter 4 U OR $end
$var parameter 4 V SLL $end
$var parameter 4 W SLT $end
$var parameter 4 X SRL $end
$var parameter 4 Y SUB $end
$var reg 32 Z result [31:0] $end
$upscope $end
$scope module Control_Unit $end
$var wire 6 [ funct [5:0] $end
$var wire 6 \ opcode [5:0] $end
$var parameter 6 ] OP_ADDI $end
$var parameter 6 ^ OP_ANDI $end
$var parameter 6 _ OP_BEQ $end
$var parameter 6 ` OP_BNE $end
$var parameter 6 a OP_JAL $end
$var parameter 6 b OP_JUMP $end
$var parameter 6 c OP_LW $end
$var parameter 6 d OP_ORI $end
$var parameter 6 e OP_RTYPE $end
$var parameter 6 f OP_SLT $end
$var parameter 6 g OP_SW $end
$var reg 1 K ALUSrc $end
$var reg 1 J Branch $end
$var reg 1 I Jal $end
$var reg 1 H Jr $end
$var reg 1 G Jump $end
$var reg 1 F MemRead $end
$var reg 1 E MemWrite $end
$var reg 1 D MemtoReg $end
$var reg 1 C RegDst $end
$var reg 1 B RegWrite $end
$var reg 2 h alu_op [1:0] $end
$upscope $end
$scope module alu_ctrl $end
$var wire 2 i alu_op [1:0] $end
$var wire 6 j funct [5:0] $end
$var wire 6 k opcode [5:0] $end
$var parameter 4 l ALU_ADD $end
$var parameter 4 m ALU_AND $end
$var parameter 4 n ALU_MUL $end
$var parameter 4 o ALU_NOR $end
$var parameter 4 p ALU_OR $end
$var parameter 4 q ALU_SLL $end
$var parameter 4 r ALU_SLT $end
$var parameter 4 s ALU_SRL $end
$var parameter 4 t ALU_SUB $end
$var parameter 6 u FUNCT_ADD $end
$var parameter 6 v FUNCT_AND $end
$var parameter 6 w FUNCT_JR $end
$var parameter 6 x FUNCT_MUL $end
$var parameter 6 y FUNCT_NOR $end
$var parameter 6 z FUNCT_OR $end
$var parameter 6 { FUNCT_SLL $end
$var parameter 6 | FUNCT_SLT $end
$var parameter 6 } FUNCT_SRL $end
$var parameter 6 ~ FUNCT_SUB $end
$var parameter 6 !" OP_ANDI $end
$var parameter 6 "" OP_ORI $end
$var reg 4 #" ALUControl [3:0] $end
$upscope $end
$scope module dmem $end
$var wire 1 F MemRead $end
$var wire 1 E MemWrite $end
$var wire 32 $" addr [31:0] $end
$var wire 1 ! clk $end
$var wire 32 %" rd [31:0] $end
$var wire 32 &" wd [31:0] $end
$var integer 32 '" i [31:0] $end
$upscope $end
$scope module imem $end
$var wire 32 (" addr [31:0] $end
$var wire 32 )" instr [31:0] $end
$var integer 32 *" i [31:0] $end
$upscope $end
$scope module rf $end
$var wire 1 ! clk $end
$var wire 5 +" ra1 [4:0] $end
$var wire 5 ," ra2 [4:0] $end
$var wire 5 -" wa [4:0] $end
$var wire 32 ." wd [31:0] $end
$var wire 1 B we $end
$var wire 32 /" rd2 [31:0] $end
$var wire 32 0" rd1 [31:0] $end
$var integer 32 1" i [31:0] $end
$upscope $end
$upscope $end
$upscope $end
$enddefinitions $end
$comment Show the parameter values. $end
$dumpall
b1101 ""
b1100 !"
b100010 ~
b10 }
b101010 |
b0 {
b100101 z
b100111 y
b11000 x
b1000 w
b100100 v
b100000 u
b100 t
b111 s
b1000 r
b110 q
b1 p
b10 o
b101 n
b0 m
b11 l
b101011 g
b1010 f
b0 e
b1101 d
b100011 c
b10 b
b11 a
b101 `
b100 _
b1100 ^
b1000 ]
b100 Y
b111 X
b1000 W
b110 V
b1 U
b10 T
b101 S
b0 R
b11 Q
$end
#0
$dumpvars
b100000 1"
b0 0"
b0 /"
b0 ."
b0 -"
b0 ,"
b0 +"
b10000000 *"
b0 )"
b0 ("
b10000000 '"
b0 &"
b0 %"
b0 $"
b110 #"
b0 k
b0 j
b10 i
b10 h
b0 \
b0 [
b0 Z
b110 P
b0 O
b0 N
b0 M
b110 L
0K
0J
0I
0H
0G
0F
0E
0D
1C
1B
b0 A
b0 @
b10 ?
b0 >
b100 =
b0 <
b0 ;
b0 :
19
b0 8
b0 7
b0 6
b100 5
b100 4
b0 3
b0 2
b0 1
b0 0
b0 /
b0 .
b0 -
b0 ,
b0 +
b0 *
b0 )
b0 (
b0 '
b0 &
1%
0$
bx #
1"
0!
$end
#5
1!
#10
b100 *
b100 ."
b1000 +
b1000 -"
09
b100 &
b100 >
b100 Z
b100 $"
b100 @
b100 O
b10100 =
0%
1K
1B
0C
b0 ?
b0 h
b0 i
b11 L
b11 P
b11 #"
b1000000000000000010000 7
b10000000000000000100 8
b100 -
b100 ;
b100 <
b100 [
b100 j
b1000 (
b1000 ,"
b1000 .
b1000 6
b1000 \
b1000 k
0!
b100000000010000000000000000100 :
b100000000010000000000000000100 )"
0"
#15
b1111 *
b1111 ."
b1111 &
b1111 >
b1111 Z
b1111 $"
b1001 +
b1001 -"
b1000 5
b1111 @
b1111 O
1B
1K
b1001000000000000111100 7
b10010000000000001111 8
b1111 -
b1111 ;
b1111 <
b1111 [
b1111 j
b1001 (
b1001 ,"
b1001 .
b0 )
b0 &"
b0 0
b0 /"
b100000000010010000000000001111 :
b100000000010010000000000001111 )"
b1000100 =
b1000 4
b100 M
b100 ("
1!
#20
0!
#25
b1100100 *
b1100100 ."
b1100100 &
b1100100 >
b1100100 Z
b1100100 $"
b1010 +
b1010 -"
b1100 5
b1100100 @
b1100100 O
1B
1K
b1010000000000110010000 7
b10100000000001100100 8
b1100100 -
b1100100 ;
b100100 <
b100100 [
b100100 j
b1 ,
b1010 (
b1010 ,"
b1010 .
b0 )
b0 &"
b0 0
b0 /"
b100000000010100000000001100100 :
b100000000010100000000001100100 )"
b110011100 =
b1100 4
b1000 M
b1000 ("
1!
#30
0!
#35
b1000 *
b1000 ."
b1000 &
b1000 >
b1000 Z
b1000 $"
b10001 +
b10001 -"
b10000 5
b1000 @
b1000 O
1B
1K
b10001000000000000100000 7
b100010000000000001000 8
b1000 -
b1000 ;
b1000 <
b1000 [
b1000 j
b0 ,
b10001 (
b10001 ,"
b10001 .
b0 )
b0 &"
b0 0
b0 /"
b100000000100010000000000001000 :
b100000000100010000000000001000 )"
b110000 =
b10000 4
b1100 M
b1100 ("
1!
#40
0!
#45
b1000 +
b1000 -"
b1000 A
b1000 N
b10100 5
b0 @
b0 O
b1000 1
b1000 0"
1E
0B
1K
b1000101000000000000000000000 7
b10001010000000000000000000 8
b0 -
b0 ;
b0 <
b0 [
b0 j
b1000 (
b1000 ,"
b1000 .
b10001 '
b10001 +"
b10001 /
b101011 6
b101011 \
b101011 k
b100 )
b100 &"
b100 0
b100 /"
b10101110001010000000000000000000 :
b10101110001010000000000000000000 )"
b10100 =
b10100 4
b10000 M
b10000 ("
1!
#50
0!
#55
b10000 *
b10000 ."
b10000 &
b10000 >
b10000 Z
b10000 $"
b1001 +
b1001 -"
b11000 5
b1000 @
b1000 O
1K
1E
b1111 )
b1111 &"
b1111 0
b1111 /"
b1000101001000000000000100000 7
b10001010010000000000001000 8
b1000 -
b1000 ;
b1000 <
b1000 [
b1000 j
b1001 (
b1001 ,"
b1001 .
b10101110001010010000000000001000 :
b10101110001010010000000000001000 )"
b0 2
b0 %"
b111000 =
b11000 4
b10100 M
b10100 ("
1!
#60
0!
#65
b100 *
b100 ."
b100 &
b100 >
b100 Z
b100 $"
b1010 +
b1010 -"
b11100 5
b11111111111111111111111111111100 @
b11111111111111111111111111111100 O
1K
1E
b1100100 )
b1100100 &"
b1100100 0
b1100100 /"
b1000101010111111111111110000 7
b10001010101111111111111100 8
b11111111111111111111111111111100 -
b1111111111111100 ;
b111100 <
b111100 [
b111100 j
b11111 ,
b11111 3
b1010 (
b1010 ,"
b1010 .
b10101110001010101111111111111100 :
b10101110001010101111111111111100 )"
b0 2
b0 %"
b1100 =
b11100 4
b11000 M
b11000 ("
1!
#70
0!
#75
b0 *
b0 ."
1%
19
b0 &
b0 >
b0 Z
b0 $"
b0 +
b0 -"
b0 A
b0 N
b110 L
b110 P
b110 #"
b100000 5
b0 @
b0 O
b0 )
b0 &"
b0 0
b0 /"
b0 1
b0 0"
1B
b10 ?
b10 h
b10 i
1C
0K
0E
b0 7
b0 8
b0 -
b0 ;
b0 <
b0 [
b0 j
b0 ,
b0 3
b0 (
b0 ,"
b0 .
b0 '
b0 +"
b0 /
b0 6
b0 \
b0 k
b0 :
b0 )"
b0 2
b0 %"
b100000 =
b100000 4
b11100 M
b11100 ("
1!
#80
0!
#85
b100100 5
b100100 =
b100100 4
b100000 M
b100000 ("
1!
#90
0!
#95
b101000 5
b101000 =
b101000 4
b100100 M
b100100 ("
1!
#100
0!
#105
b101100 5
b101100 =
b101100 4
b101000 M
b101000 ("
1!
#110
0!
#115
b110000 5
b110000 =
b110000 4
b101100 M
b101100 ("
1!
#120
0!
#125
b110100 5
b110100 =
b110100 4
b110000 M
b110000 ("
1!
#130
0!
#135
b111000 5
b111000 =
b111000 4
b110100 M
b110100 ("
1!
#140
0!
#145
b111100 5
b111100 =
b111100 4
b111000 M
b111000 ("
1!
#150
0!
#155
b1000000 5
b1000000 =
b1000000 4
b111100 M
b111100 ("
1!
#160
0!
#165
b1000100 5
b1000100 =
b1000100 4
b1000000 M
b1000000 ("
1!
#170
0!
#175
b1001000 5
b1001000 =
b1001000 4
b1000100 M
b1000100 ("
1!
#180
0!
#185
b1001100 5
b1001100 =
b1001100 4
b1001000 M
b1001000 ("
1!
#190
0!
#195
b1010000 5
b1010000 =
b1010000 4
b1001100 M
b1001100 ("
1!
#200
0!
#205
b1010100 5
b1010100 =
b1010100 4
b1010000 M
b1010000 ("
1!
#210
0!
#215
b1011000 5
b1011000 =
b1011000 4
b1010100 M
b1010100 ("
1!
#220
0!
#225
b1011100 5
b1011100 =
b1011100 4
b1011000 M
b1011000 ("
1!
#230
0!
#235
b1100000 5
b1100000 =
b1100000 4
b1011100 M
b1011100 ("
1!
#240
0!
#245
b1100100 5
b1100100 =
b1100100 4
b1100000 M
b1100000 ("
1!
#250
0!
#255
b1101000 5
b1101000 =
b1101000 4
b1100100 M
b1100100 ("
1!
#260
0!
#265
b1101100 5
b1101100 =
b1101100 4
b1101000 M
b1101000 ("
1!
#270
0!
#275
b1110000 5
b1110000 =
b1110000 4
b1101100 M
b1101100 ("
1!
#280
0!
#285
b1110100 5
b1110100 =
b1110100 4
b1110000 M
b1110000 ("
1!
#290
0!
#295
b1111000 5
b1111000 =
b1111000 4
b1110100 M
b1110100 ("
1!
#300
0!
#305
b1111100 5
b1111100 =
b1111100 4
b1111000 M
b1111000 ("
1!
#310
0!
#315
b10000000 5
b10000000 =
b10000000 4
b1111100 M
b1111100 ("
1!
#320
0!
#325
b10000100 5
b10000100 =
b10000100 4
b10000000 M
b10000000 ("
1!
#330
0!
#335
b10001000 5
b10001000 =
b10001000 4
b10000100 M
b10000100 ("
1!
#340
0!
#345
b10001100 5
b10001100 =
b10001100 4
b10001000 M
b10001000 ("
1!
#350
0!
#355
b10010000 5
b10010000 =
b10010000 4
b10001100 M
b10001100 ("
1!
#360
0!
#365
b10010100 5
b10010100 =
b10010100 4
b10010000 M
b10010000 ("
1!
#370
0!
#375
b10011000 5
b10011000 =
b10011000 4
b10010100 M
b10010100 ("
1!
#380
0!
#385
b10011100 5
b10011100 =
b10011100 4
b10011000 M
b10011000 ("
1!
#390
0!
#395
b10100000 5
b10100000 =
b10100000 4
b10011100 M
b10011100 ("
1!
#400
0!
#405
b10100100 5
b10100100 =
b10100100 4
b10100000 M
b10100000 ("
1!
#410
0!
b100000 #
