pipelined_mips_test1.vcd
$date
	Mon Dec  1 19:34:53 2025
$end
$version
	Icarus Verilog
$end
$timescale
	1s
$end
$scope module pipelined_mips_test $end
$var reg 1 ! clk $end
$var reg 1 " reset $end
$var integer 32 # i [31:0] $end
$scope module processor $end
$var wire 1 $ PcSrc $end
$var wire 1 % branch_taken $end
$var wire 1 ! clk $end
$var wire 1 & ex_isShift $end
$var wire 1 ' flush_req $end
$var wire 1 " reset $end
$var wire 5 ( wb_write_regaddr [4:0] $end
$var wire 32 ) wb_write_memdata [31:0] $end
$var wire 32 * wb_read_memdata [31:0] $end
$var wire 32 + wb_alu_result [31:0] $end
$var wire 1 , wb_RegWrite $end
$var wire 1 - wb_MemtoReg $end
$var wire 1 . pc_write $end
$var wire 32 / pc_plus_4 [31:0] $end
$var wire 32 0 pc_out [31:0] $end
$var wire 32 1 pc_in [31:0] $end
$var wire 5 2 mem_write_regaddr [4:0] $end
$var wire 32 3 mem_write_memdata [31:0] $end
$var wire 5 4 mem_rt [4:0] $end
$var wire 32 5 mem_read_memdata [31:0] $end
$var wire 32 6 mem_branch_target [31:0] $end
$var wire 32 7 mem_alu_result [31:0] $end
$var wire 1 8 mem_RegWrite $end
$var wire 1 9 mem_MemtoReg $end
$var wire 1 : mem_MemWrite $end
$var wire 1 ; mem_MemRead $end
$var wire 1 < mem_Branch $end
$var wire 1 = mem_AluZero $end
$var wire 1 > ifid_write $end
$var wire 1 ? ifid_flush $end
$var wire 32 @ if_instr [31:0] $end
$var wire 1 A idex_flush $end
$var wire 5 B id_shamt [4:0] $end
$var wire 32 C id_sext_imm [31:0] $end
$var wire 5 D id_rt [4:0] $end
$var wire 5 E id_rs [4:0] $end
$var wire 32 F id_read_regdata2 [31:0] $end
$var wire 32 G id_read_regdata1 [31:0] $end
$var wire 5 H id_rd [4:0] $end
$var wire 32 I id_pc_plus_4 [31:0] $end
$var wire 6 J id_opcode [5:0] $end
$var wire 32 K id_instr [31:0] $end
$var wire 6 L id_funct [5:0] $end
$var wire 1 M id_RegWrite $end
$var wire 1 N id_RegDst $end
$var wire 1 O id_MemtoReg $end
$var wire 1 P id_MemWrite $end
$var wire 1 Q id_MemRead $end
$var wire 1 R id_Jump $end
$var wire 1 S id_Jr $end
$var wire 1 T id_Jal $end
$var wire 1 U id_Branch $end
$var wire 1 V id_AluSrc $end
$var wire 2 W id_AluOp [1:0] $end
$var wire 1 X forwardMem $end
$var wire 2 Y forwardB [1:0] $end
$var wire 2 Z forwardA [1:0] $end
$var wire 5 [ ex_write_regaddr [4:0] $end
$var wire 5 \ ex_shamt [4:0] $end
$var wire 32 ] ex_sext_imm [31:0] $end
$var wire 5 ^ ex_rt [4:0] $end
$var wire 5 _ ex_rs [4:0] $end
$var wire 32 ` ex_read_regdata2 [31:0] $end
$var wire 32 a ex_read_regdata1 [31:0] $end
$var wire 5 b ex_rd [4:0] $end
$var wire 32 c ex_pc_plus_4 [31:0] $end
$var wire 6 d ex_opcode [5:0] $end
$var wire 6 e ex_funct [5:0] $end
$var wire 32 f ex_branch_target [31:0] $end
$var wire 32 g ex_alu_result [31:0] $end
$var wire 32 h ex_SrcB [31:0] $end
$var wire 32 i ex_SrcA [31:0] $end
$var wire 1 j ex_RegWrite $end
$var wire 1 k ex_RegDst $end
$var wire 1 l ex_MemtoReg $end
$var wire 1 m ex_MemWrite $end
$var wire 1 n ex_MemRead $end
$var wire 1 o ex_Branch $end
$var wire 1 p ex_AluZero $end
$var wire 1 q ex_AluSrc $end
$var wire 2 r ex_AluOp [1:0] $end
$var wire 4 s ex_ALUControl [3:0] $end
$var wire 32 t dm_write_memdata [31:0] $end
$scope module ALU $end
$var wire 32 u a [31:0] $end
$var wire 32 v b [31:0] $end
$var wire 1 p Zero $end
$var wire 4 w ALUControl [3:0] $end
$var parameter 4 x ADD $end
$var parameter 4 y AND $end
$var parameter 4 z MUL $end
$var parameter 4 { NOR $end
$var parameter 4 | OR $end
$var parameter 4 } SLL $end
$var parameter 4 ~ SLT $end
$var parameter 4 !" SRL $end
$var parameter 4 "" SUB $end
$var reg 32 #" result [31:0] $end
$upscope $end
$scope module alu_ctrl $end
$var wire 6 $" opcode [5:0] $end
$var wire 6 %" funct [5:0] $end
$var wire 2 &" alu_op [1:0] $end
$var parameter 4 '" ALU_ADD $end
$var parameter 4 (" ALU_AND $end
$var parameter 4 )" ALU_MUL $end
$var parameter 4 *" ALU_NOR $end
$var parameter 4 +" ALU_OR $end
$var parameter 4 ," ALU_SLL $end
$var parameter 4 -" ALU_SLT $end
$var parameter 4 ." ALU_SRL $end
$var parameter 4 /" ALU_SUB $end
$var parameter 6 0" FUNCT_ADD $end
$var parameter 6 1" FUNCT_AND $end
$var parameter 6 2" FUNCT_JR $end
$var parameter 6 3" FUNCT_MUL $end
$var parameter 6 4" FUNCT_NOR $end
$var parameter 6 5" FUNCT_OR $end
$var parameter 6 6" FUNCT_SLL $end
$var parameter 6 7" FUNCT_SLT $end
$var parameter 6 8" FUNCT_SRL $end
$var parameter 6 9" FUNCT_SUB $end
$var parameter 6 :" OP_ANDI $end
$var parameter 6 ;" OP_ORI $end
$var reg 4 <" ALUControl [3:0] $end
$upscope $end
$scope module cu $end
$var wire 6 =" funct [5:0] $end
$var wire 6 >" opcode [5:0] $end
$var parameter 6 ?" OP_ADDI $end
$var parameter 6 @" OP_ANDI $end
$var parameter 6 A" OP_BEQ $end
$var parameter 6 B" OP_BNE $end
$var parameter 6 C" OP_JAL $end
$var parameter 6 D" OP_JUMP $end
$var parameter 6 E" OP_LW $end
$var parameter 6 F" OP_ORI $end
$var parameter 6 G" OP_RTYPE $end
$var parameter 6 H" OP_SLT $end
$var parameter 6 I" OP_SW $end
$var reg 1 V ALUSrc $end
$var reg 1 U Branch $end
$var reg 1 T Jal $end
$var reg 1 S Jr $end
$var reg 1 R Jump $end
$var reg 1 Q MemRead $end
$var reg 1 P MemWrite $end
$var reg 1 O MemtoReg $end
$var reg 1 N RegDst $end
$var reg 1 M RegWrite $end
$var reg 2 J" alu_op [1:0] $end
$upscope $end
$scope module dmem $end
$var wire 1 ! clk $end
$var wire 32 K" rd [31:0] $end
$var wire 32 L" wd [31:0] $end
$var wire 32 M" addr [31:0] $end
$var wire 1 : MemWrite $end
$var wire 1 ; MemRead $end
$var integer 32 N" i [31:0] $end
$upscope $end
$scope module ex_mem $end
$var wire 1 ! clk $end
$var wire 1 p ex_AluZero $end
$var wire 32 O" ex_alu_result [31:0] $end
$var wire 32 P" ex_branch_target [31:0] $end
$var wire 5 Q" ex_write_regaddr [4:0] $end
$var wire 1 " reset $end
$var wire 32 R" ex_write_memdata [31:0] $end
$var wire 5 S" ex_rt [4:0] $end
$var wire 1 j ex_RegWrite $end
$var wire 1 l ex_MemtoReg $end
$var wire 1 m ex_MemWrite $end
$var wire 1 n ex_MemRead $end
$var wire 1 o ex_Branch $end
$var reg 1 = mem_AluZero $end
$var reg 1 < mem_Branch $end
$var reg 1 ; mem_MemRead $end
$var reg 1 : mem_MemWrite $end
$var reg 1 9 mem_MemtoReg $end
$var reg 1 8 mem_RegWrite $end
$var reg 32 T" mem_alu_result [31:0] $end
$var reg 32 U" mem_branch_target [31:0] $end
$var reg 5 V" mem_rt [4:0] $end
$var reg 32 W" mem_write_memdata [31:0] $end
$var reg 5 X" mem_write_regaddr [4:0] $end
$upscope $end
$scope module fwd $end
$var wire 1 : exmem_MemWrite $end
$var wire 1 8 exmem_RegWrite $end
$var wire 5 Y" exmem_rt [4:0] $end
$var wire 5 Z" exmem_write_regaddr [4:0] $end
$var wire 5 [" memwb_write_regaddr [4:0] $end
$var wire 1 , memwb_RegWrite $end
$var wire 5 \" idex_rt [4:0] $end
$var wire 5 ]" idex_rs [4:0] $end
$var reg 2 ^" forwardA [1:0] $end
$var reg 2 _" forwardB [1:0] $end
$var reg 1 X forwardMem $end
$upscope $end
$scope module hu $end
$var wire 1 `" ex_hazard $end
$var wire 1 8 exmem_RegWrite $end
$var wire 5 a" exmem_write_regaddr [4:0] $end
$var wire 1 ' flush_req $end
$var wire 5 b" idex_write_regaddr [4:0] $end
$var wire 5 c" ifid_rs [4:0] $end
$var wire 5 d" ifid_rt [4:0] $end
$var wire 1 e" mem_hazard $end
$var wire 1 f" wb_hazard $end
$var wire 5 g" memwb_write_regaddr [4:0] $end
$var wire 1 , memwb_RegWrite $end
$var wire 1 j idex_RegWrite $end
$var wire 1 n idex_MemRead $end
$var reg 1 A idex_flush $end
$var reg 1 ? ifid_flush $end
$var reg 1 > ifid_write $end
$var reg 1 . pc_write $end
$upscope $end
$scope module id_ex $end
$var wire 1 ! clk $end
$var wire 1 A flush $end
$var wire 2 h" id_AluOp [1:0] $end
$var wire 1 V id_AluSrc $end
$var wire 1 U id_Branch $end
$var wire 1 Q id_MemRead $end
$var wire 1 P id_MemWrite $end
$var wire 1 O id_MemtoReg $end
$var wire 1 N id_RegDst $end
$var wire 1 M id_RegWrite $end
$var wire 6 i" id_funct [5:0] $end
$var wire 6 j" id_opcode [5:0] $end
$var wire 5 k" id_rd [4:0] $end
$var wire 5 l" id_rs [4:0] $end
$var wire 5 m" id_rt [4:0] $end
$var wire 32 n" id_sext_imm [31:0] $end
$var wire 5 o" id_shamt [4:0] $end
$var wire 1 " reset $end
$var wire 32 p" id_read_regdata2 [31:0] $end
$var wire 32 q" id_read_regdata1 [31:0] $end
$var wire 32 r" id_pc_plus_4 [31:0] $end
$var reg 2 s" ex_AluOp [1:0] $end
$var reg 1 q ex_AluSrc $end
$var reg 1 o ex_Branch $end
$var reg 1 n ex_MemRead $end
$var reg 1 m ex_MemWrite $end
$var reg 1 l ex_MemtoReg $end
$var reg 1 k ex_RegDst $end
$var reg 1 j ex_RegWrite $end
$var reg 6 t" ex_funct [5:0] $end
$var reg 6 u" ex_opcode [5:0] $end
$var reg 32 v" ex_pc_plus_4 [31:0] $end
$var reg 5 w" ex_rd [4:0] $end
$var reg 32 x" ex_read_regdata1 [31:0] $end
$var reg 32 y" ex_read_regdata2 [31:0] $end
$var reg 5 z" ex_rs [4:0] $end
$var reg 5 {" ex_rt [4:0] $end
$var reg 32 |" ex_sext_imm [31:0] $end
$var reg 5 }" ex_shamt [4:0] $end
$upscope $end
$scope module if_id $end
$var wire 1 ! clk $end
$var wire 1 ? flush $end
$var wire 32 ~" if_pc_plus_4 [31:0] $end
$var wire 1 " reset $end
$var wire 1 !# stall $end
$var wire 32 "# if_instr [31:0] $end
$var reg 32 ## id_instr [31:0] $end
$var reg 32 $# id_pc_plus_4 [31:0] $end
$upscope $end
$scope module imem $end
$var wire 32 %# instr [31:0] $end
$var wire 32 &# addr [31:0] $end
$var integer 32 '# i [31:0] $end
$upscope $end
$scope module mem_wb $end
$var wire 1 ! clk $end
$var wire 1 9 mem_MemtoReg $end
$var wire 1 8 mem_RegWrite $end
$var wire 32 (# mem_alu_result [31:0] $end
$var wire 32 )# mem_read_memdata [31:0] $end
$var wire 5 *# mem_write_regaddr [4:0] $end
$var wire 1 " reset $end
$var reg 1 - wb_MemtoReg $end
$var reg 1 , wb_RegWrite $end
$var reg 32 +# wb_alu_result [31:0] $end
$var reg 32 ,# wb_read_memdata [31:0] $end
$var reg 5 -# wb_write_regaddr [4:0] $end
$upscope $end
$scope module pc_reg $end
$var wire 1 ! clk $end
$var wire 32 .# pc_in [31:0] $end
$var wire 1 " reset $end
$var wire 1 . write_enable $end
$var reg 32 /# pc_out [31:0] $end
$upscope $end
$scope module rf $end
$var wire 1 ! clk $end
$var wire 5 0# ra1 [4:0] $end
$var wire 5 1# ra2 [4:0] $end
$var wire 5 2# wa [4:0] $end
$var wire 32 3# wd [31:0] $end
$var wire 1 , we $end
$var wire 32 4# rd2 [31:0] $end
$var wire 32 5# rd1 [31:0] $end
$var integer 32 6# i [31:0] $end
$upscope $end
$upscope $end
$upscope $end
$enddefinitions $end
$comment Show the parameter values. $end
$dumpall
b101011 I"
b1010 H"
b0 G"
b1101 F"
b100011 E"
b10 D"
b11 C"
b101 B"
b100 A"
b1100 @"
b1000 ?"
b1101 ;"
b1100 :"
b100010 9"
b10 8"
b101010 7"
b0 6"
b100101 5"
b100111 4"
b11000 3"
b1000 2"
b100100 1"
b100000 0"
b100 /"
b111 ."
b1000 -"
b110 ,"
b1 +"
b10 *"
b101 )"
b0 ("
b11 '"
b100 ""
b111 !"
b1000 ~
b110 }
b1 |
b10 {
b101 z
b0 y
b11 x
$end
#0
$dumpvars
b100000 6#
bx 5#
bx 4#
bx 3#
bx 2#
bx 1#
bx 0#
bx /#
bx .#
bx -#
bx ,#
bx +#
bx *#
bx )#
bx (#
b10000000 '#
bx &#
bx %#
bx $#
bx ##
bx "#
x!#
bx ~"
bx }"
bx |"
bx {"
bx z"
bx y"
bx x"
bx w"
bx v"
bx u"
bx t"
bx s"
bx r"
bx q"
bx p"
bx o"
bx n"
bx m"
bx l"
bx k"
bx j"
bx i"
bx h"
bx g"
xf"
xe"
bx d"
bx c"
bx b"
bx a"
x`"
bx _"
bx ^"
bx ]"
bx \"
bx ["
bx Z"
bx Y"
bx X"
bx W"
bx V"
bx U"
bx T"
bx S"
bx R"
bx Q"
bx P"
bx O"
b10000000 N"
bx M"
bx L"
bx K"
bx J"
bx >"
bx ="
bx <"
bx &"
bx %"
bx $"
bx #"
bx w
bx v
bx u
bx t
bx s
bx r
xq
xp
xo
xn
xm
xl
xk
xj
bx i
bx h
bx g
bx f
bx e
bx d
bx c
bx b
bx a
bx `
bx _
bx ^
bx ]
bx \
bx [
bx Z
bx Y
xX
bx W
xV
xU
xT
xS
xR
xQ
xP
xO
xN
xM
bx L
bx K
bx J
bx I
bx H
bx G
bx F
bx E
bx D
bx C
bx B
xA
bx @
x?
x>
x=
x<
x;
x:
x9
x8
bx 7
bx 6
bx 5
bx 4
bx 3
bx 2
bx 1
bx 0
bx /
x.
x-
x,
bx +
bx *
bx )
bx (
x'
x&
x%
x$
bx #
1"
0!
$end
#5
1p
b0 g
b0 #"
b0 O"
0`"
b0 h
b0 v
b0 F
b0 p"
b0 4#
b0 G
b0 q"
b0 5#
0S
0T
0U
0R
1M
1N
0V
b10 W
b10 J"
b10 h"
0P
0Q
0O
1&
b0 i
b0 u
0!#
0e"
0f"
b0 @
b0 "#
b0 %#
b0 C
b0 n"
b0 L
b0 ="
b0 i"
b0 B
b0 o"
b0 H
b0 k"
b0 D
b0 d"
b0 m"
b0 1#
b0 E
b0 c"
b0 l"
b0 0#
b0 J
b0 >"
b0 j"
b0 f
b0 P"
b11 s
b11 w
b11 <"
0?
0A
1>
1.
b0 [
b0 Q"
b0 b"
b100 1
b100 .#
b0 t
b0 L"
b0 5
b0 K"
b0 )#
0$
0'
0%
0X
b0 Y
b0 _"
b0 Z
b0 ^"
b0 )
b0 3#
b100 /
b100 ~"
b0 0
b0 &#
b0 /#
b0 K
b0 ##
b0 I
b0 r"
b0 $#
b0 \
b0 }"
b0 b
b0 w"
b0 ^
b0 S"
b0 \"
b0 {"
b0 _
b0 ]"
b0 z"
b0 e
b0 %"
b0 t"
b0 d
b0 $"
b0 u"
b0 ]
b0 |"
b0 `
b0 R"
b0 y"
b0 a
b0 x"
b0 c
b0 v"
b0 r
b0 &"
b0 s"
0o
0m
0n
0j
0l
0q
0k
b0 4
b0 V"
b0 Y"
b0 6
b0 U"
b0 2
b0 X"
b0 Z"
b0 a"
b0 *#
b0 3
b0 W"
b0 7
b0 M"
b0 T"
b0 (#
0=
0<
0:
0;
08
09
b0 (
b0 ["
b0 g"
b0 -#
b0 2#
b0 *
b0 ,#
b0 +
b0 +#
0,
0-
1!
#10
0!
b100000000010000000000000001000 @
b100000000010000000000000001000 "#
b100000000010000000000000001000 %#
0"
#15
1V
1M
0N
b0 W
b0 J"
b0 h"
b110 s
b110 w
b110 <"
b1000 C
b1000 n"
b1000 L
b1000 ="
b1000 i"
b1000 D
b1000 d"
b1000 m"
b1000 1#
b1000 J
b1000 >"
b1000 j"
b100000000010010000000000001111 @
b100000000010010000000000001111 "#
b100000000010010000000000001111 %#
b1000 1
b1000 .#
1=
b10 r
b10 &"
b10 s"
1j
1k
b100000000010000000000000001000 K
b100000000010000000000000001000 ##
b100 I
b100 r"
b100 $#
b1000 /
b1000 ~"
b100 0
b100 &#
b100 /#
1!
#20
0!
#25
0p
b1000 g
b1000 #"
b1000 O"
b1000 h
b1000 v
1M
1V
b10101101000010010000000000000000 @
b10101101000010010000000000000000 "#
b10101101000010010000000000000000 %#
b1100 1
b1100 .#
b1111 C
b1111 n"
b1111 L
b1111 ="
b1111 i"
b1001 D
b1001 d"
b1001 m"
b1001 1#
0&
b11 s
b11 w
b11 <"
b1000 [
b1000 Q"
b1000 b"
b1100 /
b1100 ~"
b1000 0
b1000 &#
b1000 /#
b100000000010010000000000001111 K
b100000000010010000000000001111 ##
b1000 I
b1000 r"
b1000 $#
b1000 ^
b1000 S"
b1000 \"
b1000 {"
b1000 e
b1000 %"
b1000 t"
b1000 d
b1000 $"
b1000 u"
b1000 ]
b1000 |"
b100100 f
b100100 P"
b100 c
b100 v"
b0 r
b0 &"
b0 s"
1q
0k
18
1!
#30
0!
#35
b1111 g
b1111 #"
b1111 O"
b1111 h
b1111 v
1`"
1e"
1P
0M
1V
b1001 [
b1001 Q"
b1001 b"
b0 C
b0 n"
b0 L
b0 ="
b0 i"
b1000 E
b1000 c"
b1000 l"
b1000 0#
b101011 J
b101011 >"
b101011 j"
b10001101000010100000000000000000 @
b10001101000010100000000000000000 "#
b10001101000010100000000000000000 %#
b10000 1
b10000 .#
1,
b1000 4
b1000 V"
b1000 Y"
b100100 6
b100100 U"
b1000 2
b1000 X"
b1000 Z"
b1000 a"
b1000 *#
b1000 7
b1000 M"
b1000 T"
b1000 (#
0=
b1001 ^
b1001 S"
b1001 \"
b1001 {"
b1111 e
b1111 %"
b1111 t"
b1111 ]
b1111 |"
b1000100 f
b1000100 P"
b1000 c
b1000 v"
b10101101000010010000000000000000 K
b10101101000010010000000000000000 ##
b1100 I
b1100 r"
b1100 $#
b10000 /
b10000 ~"
b1100 0
b1100 &#
b1100 /#
1!
#40
0!
#45
b10111 g
b10111 #"
b10111 O"
0e"
0`"
b1000 i
b1000 u
1M
1O
1Q
1V
0P
1f"
b1001010100101100000100000 @
b1001010100101100000100000 "#
b1001010100101100000100000 %#
b10100 1
b10100 .#
b1010 D
b1010 d"
b1010 m"
b1010 1#
b100011 J
b100011 >"
b100011 j"
b1 Z
b1 ^"
b10 Y
b10 _"
b1000 )
b1000 3#
b10100 /
b10100 ~"
b10000 0
b10000 &#
b10000 /#
b10001101000010100000000000000000 K
b10001101000010100000000000000000 ##
b10000 I
b10000 r"
b10000 $#
b1000 _
b1000 ]"
b1000 z"
b0 e
b0 %"
b0 t"
b101011 d
b101011 $"
b101011 u"
b0 ]
b0 |"
b1100 f
b1100 P"
b1100 c
b1100 v"
1m
0j
b1001 4
b1001 V"
b1001 Y"
b1000100 6
b1000100 U"
b1001 2
b1001 X"
b1001 Z"
b1001 a"
b1001 *#
b1111 7
b1111 M"
b1111 T"
b1111 (#
b1000 (
b1000 ["
b1000 g"
b1000 -#
b1000 2#
b1000 +
b1000 +#
1!
#50
0!
#55
1p
b0 i
b0 u
1`"
b0 g
b0 #"
b0 O"
b1111 t
b1111 L"
1!#
b10 W
b10 J"
b10 h"
1N
1M
0V
0Q
0O
b1111 )
b1111 3#
b0 h
b0 v
b1010 [
b1010 Q"
b1010 b"
1X
b0 Y
b0 _"
b0 Z
b0 ^"
1A
0>
0.
b101100000100000 C
b101100000100000 n"
b100000 L
b100000 ="
b100000 i"
b1011 H
b1011 k"
b1001 E
b1001 c"
b1001 l"
b1001 0#
b0 J
b0 >"
b0 j"
b10001011010100000000000000001 @
b10001011010100000000000000001 "#
b10001011010100000000000000001 %#
b11000 1
b11000 .#
b1001 (
b1001 ["
b1001 g"
b1001 -#
b1001 2#
b1111 +
b1111 +#
b1100 6
b1100 U"
b10111 7
b10111 M"
b10111 T"
b10111 (#
1:
08
b1010 ^
b1010 S"
b1010 \"
b1010 {"
b100011 d
b100011 $"
b100011 u"
b10000 f
b10000 P"
b10000 c
b10000 v"
0m
1n
1j
1l
b1001010100101100000100000 K
b1001010100101100000100000 ##
b10100 I
b10100 r"
b10100 $#
b11000 /
b11000 ~"
b10100 0
b10100 &#
b10100 /#
1!
#60
0!
#65
0`"
0!#
1e"
0f"
b0 t
b0 L"
b1111 G
b1111 q"
b1111 5#
b0 [
b0 Q"
b0 b"
1&
0A
1>
1.
b10111 )
b10111 3#
0X
b0 ^
b0 S"
b0 \"
b0 {"
b0 _
b0 ]"
b0 z"
b0 d
b0 $"
b0 u"
b0 f
b0 P"
b0 c
b0 v"
0n
0j
0l
0q
b1010 4
b1010 V"
b1010 Y"
b10000 6
b10000 U"
b1010 2
b1010 X"
b1010 Z"
b1010 a"
b1010 *#
b0 7
b0 M"
b0 T"
b0 (#
1=
0:
1;
18
19
b0 5
b0 K"
b0 )#
b10111 +
b10111 +#
0,
1!
#70
0!
#75
0&
0p
b1111 g
b1111 #"
b1111 O"
1`"
1f"
0e"
b1111 i
b1111 u
b0 G
b0 q"
b0 5#
1U
0M
0N
b1 W
b1 J"
b1 h"
b0 )
b0 3#
b1 Y
b1 _"
b1011 [
b1011 Q"
b1011 b"
b1 C
b1 n"
b1 L
b1 ="
b1 i"
b0 H
b0 k"
b1011 E
b1011 c"
b1011 l"
b1011 0#
b100 J
b100 >"
b100 j"
b1011010010110000000100010 @
b1011010010110000000100010 "#
b1011010010110000000100010 %#
b11100 1
b11100 .#
b1010 (
b1010 ["
b1010 g"
b1010 -#
b1010 2#
b0 +
b0 +#
1,
1-
b0 4
b0 V"
b0 Y"
b0 6
b0 U"
b0 2
b0 X"
b0 Z"
b0 a"
b0 *#
0;
08
09
b1011 b
b1011 w"
b1010 ^
b1010 S"
b1010 \"
b1010 {"
b1001 _
b1001 ]"
b1001 z"
b100000 e
b100000 %"
b100000 t"
b101100000100000 ]
b101100000100000 |"
b1111 a
b1111 x"
b10110000010010100 f
b10110000010010100 P"
b10100 c
b10100 v"
b10 r
b10 &"
b10 s"
1j
1k
b10001011010100000000000000001 K
b10001011010100000000000000001 ##
b11000 I
b11000 r"
b11000 $#
b11100 /
b11100 ~"
b11000 0
b11000 &#
b11000 /#
1!
#80
0!
#85
0`"
b1111 F
b1111 p"
b1111 4#
1M
1N
0U
b10 W
b10 J"
b10 h"
1e"
0f"
b1100010111000000000100000 @
b1100010111000000000100000 "#
b1100010111000000000100000 %#
b100000 1
b100000 .#
b110000000100010 C
b110000000100010 n"
b100010 L
b100010 ="
b100010 i"
b1100 H
b1100 k"
b1001 D
b1001 d"
b1001 m"
b1001 1#
b0 J
b0 >"
b0 j"
b100 s
b100 w
b100 <"
b1010 [
b1010 Q"
b1010 b"
b10 Z
b10 ^"
b0 Y
b0 _"
b100000 /
b100000 ~"
b11100 0
b11100 &#
b11100 /#
b1011010010110000000100010 K
b1011010010110000000100010 ##
b11100 I
b11100 r"
b11100 $#
b0 b
b0 w"
b1011 _
b1011 ]"
b1011 z"
b1 e
b1 %"
b1 t"
b100 d
b100 $"
b100 u"
b1 ]
b1 |"
b0 a
b0 x"
b11100 f
b11100 P"
b11000 c
b11000 v"
b1 r
b1 &"
b1 s"
1o
0j
0k
b1010 4
b1010 V"
b1010 Y"
b10110000010010100 6
b10110000010010100 U"
b1011 2
b1011 X"
b1011 Z"
b1011 a"
b1011 *#
b1111 7
b1111 M"
b1111 T"
b1111 (#
0=
18
b0 (
b0 ["
b0 g"
b0 -#
b0 2#
0,
0-
1!
#90
0!
#95
1p
b0 g
b0 #"
b0 O"
b1111 h
b1111 v
1`"
1f"
0e"
b1111 i
b1111 u
1M
1N
b10 W
b10 J"
b10 h"
b0 F
b0 p"
b0 4#
b1111 )
b1111 3#
b1 Z
b1 ^"
b1100 [
b1100 Q"
b1100 b"
b11111111111111111000000000100000 C
b11111111111111111000000000100000 n"
b100000 L
b100000 ="
b100000 i"
b10000 H
b10000 k"
b1011 D
b1011 d"
b1011 m"
b1011 1#
b1100 E
b1100 c"
b1100 l"
b1100 0#
b0 @
b0 "#
b0 %#
b100100 1
b100100 .#
b1011 (
b1011 ["
b1011 g"
b1011 -#
b1011 2#
b1111 +
b1111 +#
1,
b11100 6
b11100 U"
b1010 2
b1010 X"
b1010 Z"
b1010 a"
b1010 *#
1<
08
b1100 b
b1100 w"
b1001 ^
b1001 S"
b1001 \"
b1001 {"
b100010 e
b100010 %"
b100010 t"
b0 d
b0 $"
b0 u"
b110000000100010 ]
b110000000100010 |"
b1111 `
b1111 R"
b1111 y"
b11000000010100100 f
b11000000010100100 P"
b11100 c
b11100 v"
b10 r
b10 &"
b10 s"
0o
1j
1k
b1100010111000000000100000 K
b1100010111000000000100000 ##
b100000 I
b100000 r"
b100000 $#
b100100 /
b100100 ~"
b100000 0
b100000 &#
b100000 /#
1!
#100
0!
#105
0`"
b0 h
b0 v
1M
1N
b10 W
b10 J"
b10 h"
1p
b0 g
b0 #"
b0 O"
0e"
0f"
b0 i
b0 u
b101000 1
b101000 .#
b0 C
b0 n"
b0 L
b0 ="
b0 i"
b0 H
b0 k"
b0 D
b0 d"
b0 m"
b0 1#
b0 E
b0 c"
b0 l"
b0 0#
b0 F
b0 p"
b0 4#
b10000 [
b10000 Q"
b10000 b"
b11 s
b11 w
b11 <"
b1111 t
b1111 L"
b10 Z
b10 ^"
b101000 /
b101000 ~"
b100100 0
b100100 &#
b100100 /#
b0 K
b0 ##
b100100 I
b100100 r"
b100100 $#
b10000 b
b10000 w"
b1011 ^
b1011 S"
b1011 \"
b1011 {"
b1100 _
b1100 ]"
b1100 z"
b100000 e
b100000 %"
b100000 t"
b11111111111111111000000000100000 ]
b11111111111111111000000000100000 |"
b0 `
b0 R"
b0 y"
b11111111111111100000000010100000 f
b11111111111111100000000010100000 P"
b100000 c
b100000 v"
b1001 4
b1001 V"
b1001 Y"
b11000000010100100 6
b11000000010100100 U"
b1100 2
b1100 X"
b1100 Z"
b1100 a"
b1100 *#
b1111 3
b1111 W"
b0 7
b0 M"
b0 T"
b0 (#
1=
0<
18
b1010 (
b1010 ["
b1010 g"
b1010 -#
b1010 2#
0,
1!
#110
0!
#115
1&
b0 )
b0 3#
b0 t
b0 L"
b0 [
b0 Q"
b0 b"
b0 Z
b0 ^"
b110 s
b110 w
b110 <"
b101100 1
b101100 .#
b1100 (
b1100 ["
b1100 g"
b1100 -#
b1100 2#
b0 +
b0 +#
1,
b1011 4
b1011 V"
b1011 Y"
b11111111111111100000000010100000 6
b11111111111111100000000010100000 U"
b10000 2
b10000 X"
b10000 Z"
b10000 a"
b10000 *#
b0 3
b0 W"
b0 b
b0 w"
b0 ^
b0 S"
b0 \"
b0 {"
b0 _
b0 ]"
b0 z"
b0 e
b0 %"
b0 t"
b0 ]
b0 |"
b100100 f
b100100 P"
b100100 c
b100100 v"
b101000 I
b101000 r"
b101000 $#
b101100 /
b101100 ~"
b101000 0
b101000 &#
b101000 /#
1!
#120
0!
#125
b110000 1
b110000 .#
b110000 /
b110000 ~"
b101100 0
b101100 &#
b101100 /#
b101100 I
b101100 r"
b101100 $#
b101000 f
b101000 P"
b101000 c
b101000 v"
b0 4
b0 V"
b0 Y"
b100100 6
b100100 U"
b0 2
b0 X"
b0 Z"
b0 a"
b0 *#
b10000 (
b10000 ["
b10000 g"
b10000 -#
b10000 2#
1!
#130
0!
#135
b110100 1
b110100 .#
b0 (
b0 ["
b0 g"
b0 -#
b0 2#
b101000 6
b101000 U"
b101100 f
b101100 P"
b101100 c
b101100 v"
b110000 I
b110000 r"
b110000 $#
b110100 /
b110100 ~"
b110000 0
b110000 &#
b110000 /#
1!
#140
0!
#145
b111000 1
b111000 .#
b111000 /
b111000 ~"
b110100 0
b110100 &#
b110100 /#
b110100 I
b110100 r"
b110100 $#
b110000 f
b110000 P"
b110000 c
b110000 v"
b101100 6
b101100 U"
1!
#150
0!
#155
b111100 1
b111100 .#
b110000 6
b110000 U"
b110100 f
b110100 P"
b110100 c
b110100 v"
b111000 I
b111000 r"
b111000 $#
b111100 /
b111100 ~"
b111000 0
b111000 &#
b111000 /#
1!
#160
0!
#165
b1000000 1
b1000000 .#
b1000000 /
b1000000 ~"
b111100 0
b111100 &#
b111100 /#
b111100 I
b111100 r"
b111100 $#
b111000 f
b111000 P"
b111000 c
b111000 v"
b110100 6
b110100 U"
1!
#170
0!
#175
b1000100 1
b1000100 .#
b111000 6
b111000 U"
b111100 f
b111100 P"
b111100 c
b111100 v"
b1000000 I
b1000000 r"
b1000000 $#
b1000100 /
b1000100 ~"
b1000000 0
b1000000 &#
b1000000 /#
1!
#180
0!
#185
b1001000 1
b1001000 .#
b1001000 /
b1001000 ~"
b1000100 0
b1000100 &#
b1000100 /#
b1000100 I
b1000100 r"
b1000100 $#
b1000000 f
b1000000 P"
b1000000 c
b1000000 v"
b111100 6
b111100 U"
1!
#190
0!
#195
b1001100 1
b1001100 .#
b1000000 6
b1000000 U"
b1000100 f
b1000100 P"
b1000100 c
b1000100 v"
b1001000 I
b1001000 r"
b1001000 $#
b1001100 /
b1001100 ~"
b1001000 0
b1001000 &#
b1001000 /#
1!
#200
0!
#205
b1010000 1
b1010000 .#
b1010000 /
b1010000 ~"
b1001100 0
b1001100 &#
b1001100 /#
b1001100 I
b1001100 r"
b1001100 $#
b1001000 f
b1001000 P"
b1001000 c
b1001000 v"
b1000100 6
b1000100 U"
1!
#210
0!
